<mxfile host="app.diagrams.net" modified="2021-01-29T08:49:56.626Z" agent="5.0 (Windows NT 10.0; Win64; x64) AppleWebKit/537.36 (KHTML, like Gecko) Chrome/88.0.4324.104 Safari/537.36" etag="jwKvR5hiAMWSuVBDsABc" version="14.2.7" type="gitlab">
  <diagram name="Page-1" id="e7e014a7-5840-1c2e-5031-d8a46d1fe8dd">
    <mxGraphModel dx="1102" dy="582" grid="1" gridSize="10" guides="1" tooltips="1" connect="1" arrows="1" fold="1" page="1" pageScale="1" pageWidth="1169" pageHeight="826" background="#ffffff" math="0" shadow="0">
      <root>
        <mxCell id="0" />
        <mxCell id="1" parent="0" />
        <mxCell id="2" value="SeAOps - Giải ngân - Tra cứu+Báo cáo" style="swimlane;whiteSpace=wrap" parent="1" vertex="1">
          <mxGeometry x="164.5" y="128" width="805.5" height="462" as="geometry" />
        </mxCell>
        <mxCell id="5" value="" style="ellipse;shape=startState;fillColor=#000000;strokeColor=#ff0000;" parent="2" vertex="1">
          <mxGeometry x="347.75" y="22" width="30" height="30" as="geometry" />
        </mxCell>
        <mxCell id="6" value="" style="edgeStyle=elbowEdgeStyle;elbow=horizontal;verticalAlign=bottom;endArrow=open;endSize=8;strokeColor=#FF0000;endFill=1;rounded=0" parent="2" source="5" target="7" edge="1">
          <mxGeometry x="155.5" y="40" as="geometry">
            <mxPoint x="170.5" y="110" as="targetPoint" />
          </mxGeometry>
        </mxCell>
        <mxCell id="7" value="(1) &#xa;Tra cứu / Báo cáo" style="" parent="2" vertex="1">
          <mxGeometry x="307.75" y="72" width="110" height="50" as="geometry" />
        </mxCell>
        <mxCell id="8" value="(3) &#xa;Lọc dữ liệu" style="" parent="2" vertex="1">
          <mxGeometry x="295.5" y="302" width="114.5" height="50" as="geometry" />
        </mxCell>
        <mxCell id="9" value="" style="endArrow=open;strokeColor=#FF0000;endFill=1;rounded=0;entryX=0.5;entryY=0;entryDx=0;entryDy=0;exitX=0;exitY=1;exitDx=0;exitDy=0;" parent="2" source="7" target="npU-yQshT49j2Z7XsWyp-52" edge="1">
          <mxGeometry relative="1" as="geometry" />
        </mxCell>
        <mxCell id="npU-yQshT49j2Z7XsWyp-52" value="(2.1) &#xa;Tra cứu hạch toán" style="" parent="2" vertex="1">
          <mxGeometry x="10" y="162" width="140" height="50" as="geometry" />
        </mxCell>
        <mxCell id="npU-yQshT49j2Z7XsWyp-56" value="(4)&#xa;Xuất excel" style="" parent="2" vertex="1">
          <mxGeometry x="297.75" y="391" width="110" height="50" as="geometry" />
        </mxCell>
        <mxCell id="11" value="" style="endArrow=open;strokeColor=#FF0000;endFill=1;rounded=0;entryX=0.5;entryY=0;entryDx=0;entryDy=0;" parent="2" source="8" target="npU-yQshT49j2Z7XsWyp-56" edge="1">
          <mxGeometry relative="1" as="geometry" />
        </mxCell>
        <mxCell id="Iy8KWUDXN9MaJJhM3Aoh-22" value="(2.3) &#xa;Báo cáo thời gian &#xa;xử lý theo cán bộ" style="" parent="2" vertex="1">
          <mxGeometry x="377.75" y="162" width="140" height="50" as="geometry" />
        </mxCell>
        <mxCell id="Iy8KWUDXN9MaJJhM3Aoh-25" value="" style="endArrow=open;strokeColor=#FF0000;endFill=1;rounded=0;entryX=0.5;entryY=0;entryDx=0;entryDy=0;exitX=0.25;exitY=1;exitDx=0;exitDy=0;" parent="2" source="7" target="Iy8KWUDXN9MaJJhM3Aoh-34" edge="1">
          <mxGeometry relative="1" as="geometry">
            <mxPoint x="345.25" y="132" as="sourcePoint" />
            <mxPoint x="255.5" y="162" as="targetPoint" />
          </mxGeometry>
        </mxCell>
        <mxCell id="Iy8KWUDXN9MaJJhM3Aoh-29" value="" style="line;strokeWidth=1;fillColor=none;align=left;verticalAlign=middle;spacingTop=-1;spacingLeft=3;spacingRight=3;rotatable=0;labelPosition=right;points=[];portConstraint=eastwest;" parent="2" vertex="1">
          <mxGeometry x="10" y="262" width="780" height="8" as="geometry" />
        </mxCell>
        <mxCell id="Iy8KWUDXN9MaJJhM3Aoh-33" value="" style="endArrow=open;strokeColor=#FF0000;endFill=1;rounded=0;" parent="2" edge="1">
          <mxGeometry relative="1" as="geometry">
            <mxPoint x="355.5" y="264" as="sourcePoint" />
            <mxPoint x="355.5" y="302" as="targetPoint" />
          </mxGeometry>
        </mxCell>
        <mxCell id="Iy8KWUDXN9MaJJhM3Aoh-34" value="(2.2) &#xa;Báo cáo tổng Hạch toán" style="" parent="2" vertex="1">
          <mxGeometry x="157.75" y="162" width="140" height="50" as="geometry" />
        </mxCell>
        <mxCell id="Iy8KWUDXN9MaJJhM3Aoh-35" value="(2.4) &#xa;Báo cáo về sản phẩm" style="" parent="2" vertex="1">
          <mxGeometry x="535.5" y="162" width="140" height="50" as="geometry" />
        </mxCell>
        <mxCell id="Iy8KWUDXN9MaJJhM3Aoh-37" value="" style="endArrow=open;strokeColor=#FF0000;endFill=1;rounded=0;exitX=0.75;exitY=1;exitDx=0;exitDy=0;" parent="2" source="7" target="Iy8KWUDXN9MaJJhM3Aoh-22" edge="1">
          <mxGeometry relative="1" as="geometry">
            <mxPoint x="372.75" y="132" as="sourcePoint" />
            <mxPoint x="237.75" y="172" as="targetPoint" />
          </mxGeometry>
        </mxCell>
        <mxCell id="Iy8KWUDXN9MaJJhM3Aoh-38" value="" style="endArrow=open;strokeColor=#FF0000;endFill=1;rounded=0;exitX=1;exitY=1;exitDx=0;exitDy=0;entryX=0.5;entryY=0;entryDx=0;entryDy=0;" parent="2" source="7" target="Iy8KWUDXN9MaJJhM3Aoh-35" edge="1">
          <mxGeometry relative="1" as="geometry">
            <mxPoint x="372.75" y="132" as="sourcePoint" />
            <mxPoint x="381.9807692307693" y="172" as="targetPoint" />
          </mxGeometry>
        </mxCell>
        <mxCell id="Iy8KWUDXN9MaJJhM3Aoh-41" value="" style="endArrow=open;strokeColor=#FF0000;endFill=1;rounded=0;exitX=0.454;exitY=1.02;exitDx=0;exitDy=0;exitPerimeter=0;entryX=0.081;entryY=0.75;entryDx=0;entryDy=0;entryPerimeter=0;" parent="2" source="npU-yQshT49j2Z7XsWyp-52" target="Iy8KWUDXN9MaJJhM3Aoh-29" edge="1">
          <mxGeometry relative="1" as="geometry">
            <mxPoint x="365.5" y="274" as="sourcePoint" />
            <mxPoint x="365.5" y="312" as="targetPoint" />
          </mxGeometry>
        </mxCell>
        <mxCell id="Iy8KWUDXN9MaJJhM3Aoh-42" value="" style="endArrow=open;strokeColor=#FF0000;endFill=1;rounded=0;exitX=0.5;exitY=1;exitDx=0;exitDy=0;entryX=0.28;entryY=0.554;entryDx=0;entryDy=0;entryPerimeter=0;" parent="2" source="Iy8KWUDXN9MaJJhM3Aoh-34" target="Iy8KWUDXN9MaJJhM3Aoh-29" edge="1">
          <mxGeometry relative="1" as="geometry">
            <mxPoint x="83.55999999999995" y="223" as="sourcePoint" />
            <mxPoint x="227.5" y="252" as="targetPoint" />
          </mxGeometry>
        </mxCell>
        <mxCell id="Iy8KWUDXN9MaJJhM3Aoh-43" value="" style="endArrow=open;strokeColor=#FF0000;endFill=1;rounded=0;exitX=0.5;exitY=1;exitDx=0;exitDy=0;" parent="2" source="Iy8KWUDXN9MaJJhM3Aoh-22" edge="1">
          <mxGeometry relative="1" as="geometry">
            <mxPoint x="237.75" y="222" as="sourcePoint" />
            <mxPoint x="447.5" y="262" as="targetPoint" />
          </mxGeometry>
        </mxCell>
        <mxCell id="Iy8KWUDXN9MaJJhM3Aoh-44" value="" style="endArrow=open;strokeColor=#FF0000;endFill=1;rounded=0;exitX=0.5;exitY=1;exitDx=0;exitDy=0;entryX=0.765;entryY=0.772;entryDx=0;entryDy=0;entryPerimeter=0;" parent="2" source="Iy8KWUDXN9MaJJhM3Aoh-35" target="Iy8KWUDXN9MaJJhM3Aoh-29" edge="1">
          <mxGeometry relative="1" as="geometry">
            <mxPoint x="387.75" y="222" as="sourcePoint" />
            <mxPoint x="524.5" y="267" as="targetPoint" />
          </mxGeometry>
        </mxCell>
        <mxCell id="npU-yQshT49j2Z7XsWyp-42" value="XLTD" style="rounded=0;whiteSpace=wrap;html=1;direction=east;textDirection=rtl;horizontal=0;" parent="1" vertex="1">
          <mxGeometry x="119.5" y="130" width="45" height="460" as="geometry" />
        </mxCell>
      </root>
    </mxGraphModel>
  </diagram>
</mxfile>
