<mxfile host="app.diagrams.net" modified="2021-04-26T15:49:20.876Z" agent="5.0 (Macintosh; Intel Mac OS X 10_15_7) AppleWebKit/537.36 (KHTML, like Gecko) Chrome/90.0.4430.85 Safari/537.36" etag="xyhUpz75PvSmAv7NPtyC" version="14.6.6" type="gitlab" pages="6">
  <diagram name="GN- Hạn mức" id="zdb8lWD7Nqo86s0RXE59">
    <mxGraphModel dx="1186" dy="690" grid="1" gridSize="10" guides="1" tooltips="1" connect="1" arrows="1" fold="1" page="1" pageScale="1" pageWidth="1169" pageHeight="826" background="#ffffff" math="0" shadow="0">
      <root>
        <mxCell id="aJGS1xbHEOnLGmKS70gN-0" />
        <mxCell id="aJGS1xbHEOnLGmKS70gN-1" parent="aJGS1xbHEOnLGmKS70gN-0" />
        <mxCell id="zjYHFV-JrP8teRJiNYzz-0" value="Là" style="swimlane;whiteSpace=wrap" parent="aJGS1xbHEOnLGmKS70gN-1" vertex="1">
          <mxGeometry x="164.5" y="120" width="595.5" height="1030" as="geometry" />
        </mxCell>
        <mxCell id="zjYHFV-JrP8teRJiNYzz-5" value="(3.3) &#xa;Hạch toán&#xa; Limit liên thông &quot;Cha&quot;" style="" parent="zjYHFV-JrP8teRJiNYzz-0" vertex="1">
          <mxGeometry x="102.13" y="450" width="114.5" height="50" as="geometry" />
        </mxCell>
        <mxCell id="zjYHFV-JrP8teRJiNYzz-7" value="(3.1) &#xa;Hạch toán Ref" style="" parent="zjYHFV-JrP8teRJiNYzz-0" vertex="1">
          <mxGeometry x="110" y="162" width="110" height="50" as="geometry" />
        </mxCell>
        <mxCell id="zjYHFV-JrP8teRJiNYzz-8" value="(3.2) &#xa;Hạch toán&#xa; Limit liên thông &quot;Ông&quot;" style="" parent="zjYHFV-JrP8teRJiNYzz-0" vertex="1">
          <mxGeometry x="102.13" y="360" width="113.37" height="50" as="geometry" />
        </mxCell>
        <mxCell id="zjYHFV-JrP8teRJiNYzz-38" value="T24" style="swimlane;whiteSpace=wrap" parent="zjYHFV-JrP8teRJiNYzz-0" vertex="1">
          <mxGeometry x="405.5" width="190" height="1030" as="geometry" />
        </mxCell>
        <mxCell id="zjYHFV-JrP8teRJiNYzz-40" value="(3.1.1) &#xa;Commit và &#xa;duyệt REF" style="" parent="zjYHFV-JrP8teRJiNYzz-38" vertex="1">
          <mxGeometry x="25.25" y="162" width="114.5" height="50" as="geometry" />
        </mxCell>
        <mxCell id="zjYHFV-JrP8teRJiNYzz-41" value="(3.2.1) &#xa;Commit và duyệt&#xa;Limit liên thông &quot;Ông&quot;" style="" parent="zjYHFV-JrP8teRJiNYzz-38" vertex="1">
          <mxGeometry x="15" y="360" width="114.5" height="50" as="geometry" />
        </mxCell>
        <mxCell id="zjYHFV-JrP8teRJiNYzz-42" value="(3.3.1) &#xa;Commit và duyệt&#xa;Limit liên thông &quot;Cha&quot;" style="" parent="zjYHFV-JrP8teRJiNYzz-38" vertex="1">
          <mxGeometry x="15" y="450" width="114.5" height="50" as="geometry" />
        </mxCell>
        <mxCell id="zjYHFV-JrP8teRJiNYzz-43" value="(3.3.2) &#xa;Commit và duyệt&#xa;Limit liên thông &quot;Cháu&quot;" style="" parent="zjYHFV-JrP8teRJiNYzz-38" vertex="1">
          <mxGeometry x="15" y="540" width="135" height="50" as="geometry" />
        </mxCell>
        <mxCell id="zjYHFV-JrP8teRJiNYzz-34" value="" style="ellipse;html=1;shape=endState;fillColor=#000000;strokeColor=#ff0000;fontColor=#FF3333;" parent="zjYHFV-JrP8teRJiNYzz-38" vertex="1">
          <mxGeometry x="57.25" y="980" width="30" height="30" as="geometry" />
        </mxCell>
        <mxCell id="zjYHFV-JrP8teRJiNYzz-47" value="" style="endArrow=open;strokeColor=#FF0000;endFill=1;rounded=0;exitX=1;exitY=0.5;exitDx=0;exitDy=0;" parent="zjYHFV-JrP8teRJiNYzz-0" source="zjYHFV-JrP8teRJiNYzz-7" target="zjYHFV-JrP8teRJiNYzz-40" edge="1">
          <mxGeometry relative="1" as="geometry">
            <mxPoint x="163.5" y="270" as="sourcePoint" />
            <mxPoint x="156.5" y="292" as="targetPoint" />
          </mxGeometry>
        </mxCell>
        <mxCell id="zjYHFV-JrP8teRJiNYzz-49" value="" style="endArrow=open;strokeColor=#FF0000;endFill=1;rounded=0;exitX=1;exitY=0.5;exitDx=0;exitDy=0;entryX=0;entryY=0.5;entryDx=0;entryDy=0;" parent="zjYHFV-JrP8teRJiNYzz-0" source="zjYHFV-JrP8teRJiNYzz-8" target="zjYHFV-JrP8teRJiNYzz-41" edge="1">
          <mxGeometry relative="1" as="geometry">
            <mxPoint x="224.3800000000001" y="255" as="sourcePoint" />
            <mxPoint x="430.5" y="255" as="targetPoint" />
          </mxGeometry>
        </mxCell>
        <mxCell id="zjYHFV-JrP8teRJiNYzz-50" value="" style="endArrow=open;strokeColor=#FF0000;endFill=1;rounded=0;entryX=0.5;entryY=0;entryDx=0;entryDy=0;exitX=0.5;exitY=1;exitDx=0;exitDy=0;" parent="zjYHFV-JrP8teRJiNYzz-0" source="zjYHFV-JrP8teRJiNYzz-41" target="zjYHFV-JrP8teRJiNYzz-5" edge="1">
          <mxGeometry relative="1" as="geometry">
            <mxPoint x="487.75" y="280" as="sourcePoint" />
            <mxPoint x="166.5128000000002" y="304" as="targetPoint" />
            <Array as="points">
              <mxPoint x="477.5" y="430" />
              <mxPoint x="159.5" y="430" />
            </Array>
          </mxGeometry>
        </mxCell>
        <mxCell id="zjYHFV-JrP8teRJiNYzz-69" value="" style="endArrow=open;strokeColor=#FF0000;endFill=1;rounded=0;exitX=1;exitY=0.5;exitDx=0;exitDy=0;" parent="zjYHFV-JrP8teRJiNYzz-0" source="zjYHFV-JrP8teRJiNYzz-5" target="zjYHFV-JrP8teRJiNYzz-42" edge="1">
          <mxGeometry relative="1" as="geometry">
            <mxPoint x="230" y="334" as="sourcePoint" />
            <mxPoint x="430.5" y="334" as="targetPoint" />
          </mxGeometry>
        </mxCell>
        <mxCell id="zjYHFV-JrP8teRJiNYzz-70" value="(3.3) &#xa;Hạch toán&#xa; Limit liên thông &quot;Cháu&quot;" style="" parent="zjYHFV-JrP8teRJiNYzz-0" vertex="1">
          <mxGeometry x="95.5" y="540" width="114.5" height="50" as="geometry" />
        </mxCell>
        <mxCell id="zjYHFV-JrP8teRJiNYzz-71" value="" style="endArrow=open;strokeColor=#FF0000;endFill=1;rounded=0;entryX=0.5;entryY=0;entryDx=0;entryDy=0;" parent="zjYHFV-JrP8teRJiNYzz-0" target="zjYHFV-JrP8teRJiNYzz-70" edge="1">
          <mxGeometry relative="1" as="geometry">
            <mxPoint x="473.5" y="500" as="sourcePoint" />
            <mxPoint x="155.5000000000001" y="531" as="targetPoint" />
            <Array as="points">
              <mxPoint x="473.5" y="520" />
              <mxPoint x="152.5" y="520" />
            </Array>
          </mxGeometry>
        </mxCell>
        <mxCell id="zjYHFV-JrP8teRJiNYzz-72" value="" style="endArrow=open;strokeColor=#FF0000;endFill=1;rounded=0;exitX=1;exitY=0.5;exitDx=0;exitDy=0;entryX=0;entryY=0.5;entryDx=0;entryDy=0;" parent="zjYHFV-JrP8teRJiNYzz-0" source="zjYHFV-JrP8teRJiNYzz-70" target="zjYHFV-JrP8teRJiNYzz-43" edge="1">
          <mxGeometry relative="1" as="geometry">
            <mxPoint x="212.7500000000001" y="556" as="sourcePoint" />
            <mxPoint x="419.12" y="556" as="targetPoint" />
          </mxGeometry>
        </mxCell>
        <mxCell id="CovQGSgbC5ijKpepbzrn-1" value="(1) &#xa;Hạch toán &#xa;mã quyền tài sản" style="" parent="zjYHFV-JrP8teRJiNYzz-0" vertex="1">
          <mxGeometry x="101" y="762" width="110" height="50" as="geometry" />
        </mxCell>
        <mxCell id="CovQGSgbC5ijKpepbzrn-2" value="(2) &#xa;Hạch toán&#xa;Chi tiết tài sản&#xa;Và chi tiết loại tài sản" style="" parent="zjYHFV-JrP8teRJiNYzz-0" vertex="1">
          <mxGeometry x="85.5" y="890" width="140" height="60" as="geometry" />
        </mxCell>
        <mxCell id="CovQGSgbC5ijKpepbzrn-3" value="" style="endArrow=open;strokeColor=#FF0000;endFill=1;rounded=0;exitX=1;exitY=0.5;exitDx=0;exitDy=0;entryX=0;entryY=0.5;entryDx=0;entryDy=0;" parent="zjYHFV-JrP8teRJiNYzz-0" source="CovQGSgbC5ijKpepbzrn-2" target="CovQGSgbC5ijKpepbzrn-5" edge="1">
          <mxGeometry relative="1" as="geometry">
            <mxPoint x="0.37999999999999545" y="722" as="sourcePoint" />
            <mxPoint x="286.5" y="680" as="targetPoint" />
          </mxGeometry>
        </mxCell>
        <mxCell id="CovQGSgbC5ijKpepbzrn-4" value="(1.1) &#xa;Commit và &#xa;duyệt Quyền TS" style="" parent="zjYHFV-JrP8teRJiNYzz-0" vertex="1">
          <mxGeometry x="421.62" y="760" width="114.5" height="50" as="geometry" />
        </mxCell>
        <mxCell id="CovQGSgbC5ijKpepbzrn-5" value="(2.1) &#xa;Commit &#xa;Chi tiết Tài sản" style="" parent="zjYHFV-JrP8teRJiNYzz-0" vertex="1">
          <mxGeometry x="421.62" y="895" width="114.5" height="50" as="geometry" />
        </mxCell>
        <mxCell id="CovQGSgbC5ijKpepbzrn-6" value="" style="endArrow=open;strokeColor=#FF0000;endFill=1;rounded=0;exitX=1;exitY=0.5;exitDx=0;exitDy=0;" parent="zjYHFV-JrP8teRJiNYzz-0" source="CovQGSgbC5ijKpepbzrn-1" target="CovQGSgbC5ijKpepbzrn-4" edge="1">
          <mxGeometry relative="1" as="geometry">
            <mxPoint x="51.000000000000114" y="665" as="sourcePoint" />
            <mxPoint x="-6.8799999999999955" y="720" as="targetPoint" />
          </mxGeometry>
        </mxCell>
        <mxCell id="CovQGSgbC5ijKpepbzrn-7" value="" style="endArrow=open;strokeColor=#FF0000;endFill=1;rounded=0;entryX=0.5;entryY=0;entryDx=0;entryDy=0;" parent="zjYHFV-JrP8teRJiNYzz-0" target="CovQGSgbC5ijKpepbzrn-2" edge="1">
          <mxGeometry relative="1" as="geometry">
            <mxPoint x="481" y="810" as="sourcePoint" />
            <mxPoint x="-5.5" y="710" as="targetPoint" />
            <Array as="points">
              <mxPoint x="481" y="850" />
              <mxPoint x="156" y="850" />
            </Array>
          </mxGeometry>
        </mxCell>
        <mxCell id="CovQGSgbC5ijKpepbzrn-8" value="Có Hạch toán tài sản &#xa;hay không?" style="rhombus;fillColor=#ffffc0;strokeColor=#ff0000;" parent="zjYHFV-JrP8teRJiNYzz-0" vertex="1">
          <mxGeometry x="95.5" y="610" width="124.5" height="78" as="geometry" />
        </mxCell>
        <mxCell id="CovQGSgbC5ijKpepbzrn-10" value="Có" style="endArrow=open;strokeColor=#FF0000;endFill=1;rounded=0;exitX=0.5;exitY=1;exitDx=0;exitDy=0;" parent="zjYHFV-JrP8teRJiNYzz-0" source="CovQGSgbC5ijKpepbzrn-8" edge="1">
          <mxGeometry relative="1" as="geometry">
            <mxPoint x="50.5" y="687" as="sourcePoint" />
            <mxPoint x="158.5" y="760" as="targetPoint" />
            <Array as="points" />
          </mxGeometry>
        </mxCell>
        <mxCell id="CovQGSgbC5ijKpepbzrn-9" value="Không" style="endArrow=open;strokeColor=#FF0000;endFill=1;rounded=0;exitX=0.983;exitY=0.496;exitDx=0;exitDy=0;exitPerimeter=0;entryX=1;entryY=0.5;entryDx=0;entryDy=0;" parent="zjYHFV-JrP8teRJiNYzz-0" source="CovQGSgbC5ijKpepbzrn-8" target="zjYHFV-JrP8teRJiNYzz-34" edge="1">
          <mxGeometry relative="1" as="geometry">
            <mxPoint x="63.75" y="529" as="sourcePoint" />
            <mxPoint x="575.5" y="649" as="targetPoint" />
            <Array as="points">
              <mxPoint x="575.5" y="649" />
              <mxPoint x="575.5" y="995" />
            </Array>
          </mxGeometry>
        </mxCell>
        <mxCell id="CovQGSgbC5ijKpepbzrn-11" value="" style="endArrow=open;strokeColor=#FF0000;endFill=1;rounded=0;exitX=0.5;exitY=1;exitDx=0;exitDy=0;" parent="zjYHFV-JrP8teRJiNYzz-0" edge="1">
          <mxGeometry relative="1" as="geometry">
            <mxPoint x="476.8699999999999" y="590" as="sourcePoint" />
            <mxPoint x="155.5" y="610" as="targetPoint" />
            <Array as="points">
              <mxPoint x="476.62" y="601" />
              <mxPoint x="155.5" y="601" />
            </Array>
          </mxGeometry>
        </mxCell>
        <mxCell id="CovQGSgbC5ijKpepbzrn-12" value="" style="endArrow=open;strokeColor=#FF0000;endFill=1;rounded=0;exitX=0.5;exitY=1;exitDx=0;exitDy=0;" parent="zjYHFV-JrP8teRJiNYzz-0" source="CovQGSgbC5ijKpepbzrn-5" target="zjYHFV-JrP8teRJiNYzz-34" edge="1">
          <mxGeometry relative="1" as="geometry">
            <mxPoint x="235.5" y="930" as="sourcePoint" />
            <mxPoint x="431.6199999999999" y="930" as="targetPoint" />
          </mxGeometry>
        </mxCell>
        <mxCell id="KaUUzxX9QeD_z2qkcqP4-4" value="Đúng" style="edgeStyle=orthogonalEdgeStyle;rounded=0;orthogonalLoop=1;jettySize=auto;html=1;entryX=0.5;entryY=0;entryDx=0;entryDy=0;strokeColor=#000000;" edge="1" parent="zjYHFV-JrP8teRJiNYzz-0" source="KaUUzxX9QeD_z2qkcqP4-2" target="zjYHFV-JrP8teRJiNYzz-8">
          <mxGeometry relative="1" as="geometry" />
        </mxCell>
        <mxCell id="KaUUzxX9QeD_z2qkcqP4-5" value="Sai" style="edgeStyle=orthogonalEdgeStyle;rounded=0;orthogonalLoop=1;jettySize=auto;html=1;entryX=0;entryY=0.5;entryDx=0;entryDy=0;strokeColor=#000000;" edge="1" parent="zjYHFV-JrP8teRJiNYzz-0" source="KaUUzxX9QeD_z2qkcqP4-2" target="zjYHFV-JrP8teRJiNYzz-5">
          <mxGeometry relative="1" as="geometry">
            <Array as="points">
              <mxPoint x="36" y="270" />
              <mxPoint x="36" y="475" />
            </Array>
          </mxGeometry>
        </mxCell>
        <mxCell id="KaUUzxX9QeD_z2qkcqP4-2" value="Là hạn mức liên thông?" style="rhombus;whiteSpace=wrap;html=1;" vertex="1" parent="zjYHFV-JrP8teRJiNYzz-0">
          <mxGeometry x="78.07" y="230" width="161.5" height="80" as="geometry" />
        </mxCell>
        <mxCell id="KaUUzxX9QeD_z2qkcqP4-3" style="edgeStyle=orthogonalEdgeStyle;rounded=0;orthogonalLoop=1;jettySize=auto;html=1;entryX=1;entryY=0.5;entryDx=0;entryDy=0;strokeColor=#000000;" edge="1" parent="zjYHFV-JrP8teRJiNYzz-0" source="zjYHFV-JrP8teRJiNYzz-40" target="KaUUzxX9QeD_z2qkcqP4-2">
          <mxGeometry relative="1" as="geometry">
            <Array as="points">
              <mxPoint x="486" y="270" />
            </Array>
          </mxGeometry>
        </mxCell>
        <mxCell id="zjYHFV-JrP8teRJiNYzz-2" value="" style="ellipse;shape=startState;fillColor=#000000;strokeColor=#ff0000;" parent="aJGS1xbHEOnLGmKS70gN-1" vertex="1">
          <mxGeometry x="70" y="142" width="30" height="30" as="geometry" />
        </mxCell>
        <mxCell id="zjYHFV-JrP8teRJiNYzz-3" value="" style="edgeStyle=elbowEdgeStyle;elbow=horizontal;verticalAlign=bottom;endArrow=open;endSize=8;strokeColor=#FF0000;endFill=1;rounded=0" parent="aJGS1xbHEOnLGmKS70gN-1" target="zjYHFV-JrP8teRJiNYzz-4" edge="1">
          <mxGeometry x="80" y="160" as="geometry">
            <mxPoint x="95" y="230" as="targetPoint" />
            <mxPoint x="85" y="172" as="sourcePoint" />
          </mxGeometry>
        </mxCell>
        <mxCell id="sim_G07pi9Vg1p9K2d9Q-0" style="edgeStyle=orthogonalEdgeStyle;rounded=0;orthogonalLoop=1;jettySize=auto;html=1;" edge="1" parent="aJGS1xbHEOnLGmKS70gN-1" source="zjYHFV-JrP8teRJiNYzz-4" target="zjYHFV-JrP8teRJiNYzz-10">
          <mxGeometry relative="1" as="geometry" />
        </mxCell>
        <mxCell id="zjYHFV-JrP8teRJiNYzz-4" value="(1) &#xa;Tạo công việc&#xa; Hạch toán" style="" parent="aJGS1xbHEOnLGmKS70gN-1" vertex="1">
          <mxGeometry x="32.25" y="192" width="110" height="50" as="geometry" />
        </mxCell>
        <mxCell id="KaUUzxX9QeD_z2qkcqP4-1" style="edgeStyle=orthogonalEdgeStyle;rounded=0;orthogonalLoop=1;jettySize=auto;html=1;entryX=0;entryY=0.5;entryDx=0;entryDy=0;strokeColor=#000000;" edge="1" parent="aJGS1xbHEOnLGmKS70gN-1" source="zjYHFV-JrP8teRJiNYzz-10" target="zjYHFV-JrP8teRJiNYzz-7">
          <mxGeometry relative="1" as="geometry" />
        </mxCell>
        <mxCell id="zjYHFV-JrP8teRJiNYzz-10" value="(2) &#xa;Nhập template &#xa;Hạn mức" style="" parent="aJGS1xbHEOnLGmKS70gN-1" vertex="1">
          <mxGeometry x="32.24999999999999" y="282" width="110" height="50" as="geometry" />
        </mxCell>
        <mxCell id="sim_G07pi9Vg1p9K2d9Q-2" value="Cán bộ nhập" style="swimlane;whiteSpace=wrap" vertex="1" parent="aJGS1xbHEOnLGmKS70gN-1">
          <mxGeometry x="20" y="120" width="144.5" height="1030" as="geometry" />
        </mxCell>
      </root>
    </mxGraphModel>
  </diagram>
  <diagram name="Duyet- HM Liên thông" id="_-rR9Q31htNlZQYWexdS">
    <mxGraphModel dx="1186" dy="690" grid="1" gridSize="10" guides="1" tooltips="1" connect="1" arrows="1" fold="1" page="1" pageScale="1" pageWidth="1169" pageHeight="826" background="#ffffff" math="0" shadow="0">
      <root>
        <mxCell id="HOX6V1kzmMoWOPEYjEiH-0" />
        <mxCell id="HOX6V1kzmMoWOPEYjEiH-1" parent="HOX6V1kzmMoWOPEYjEiH-0" />
        <mxCell id="HOX6V1kzmMoWOPEYjEiH-39" value="SeAOps" style="swimlane;whiteSpace=wrap" vertex="1" parent="HOX6V1kzmMoWOPEYjEiH-1">
          <mxGeometry x="164.5" y="120" width="595.5" height="470" as="geometry" />
        </mxCell>
        <mxCell id="HOX6V1kzmMoWOPEYjEiH-42" value="T24" style="swimlane;whiteSpace=wrap" vertex="1" parent="HOX6V1kzmMoWOPEYjEiH-39">
          <mxGeometry x="405.5" width="190" height="470" as="geometry" />
        </mxCell>
        <mxCell id="HOX6V1kzmMoWOPEYjEiH-43" value="(2.1) &#xa;Q Limit con" style="" vertex="1" parent="HOX6V1kzmMoWOPEYjEiH-42">
          <mxGeometry x="30" y="210" width="114.5" height="50" as="geometry" />
        </mxCell>
        <mxCell id="HOX6V1kzmMoWOPEYjEiH-44" value="(3.1) &#xa;Duyệt&#xa;Chi tiết Tài sản" style="" vertex="1" parent="HOX6V1kzmMoWOPEYjEiH-42">
          <mxGeometry x="20" y="300" width="114.5" height="50" as="geometry" />
        </mxCell>
        <mxCell id="HOX6V1kzmMoWOPEYjEiH-47" style="edgeStyle=orthogonalEdgeStyle;rounded=0;orthogonalLoop=1;jettySize=auto;html=1;" edge="1" parent="HOX6V1kzmMoWOPEYjEiH-39" source="HOX6V1kzmMoWOPEYjEiH-48" target="HOX6V1kzmMoWOPEYjEiH-43">
          <mxGeometry relative="1" as="geometry" />
        </mxCell>
        <mxCell id="HOX6V1kzmMoWOPEYjEiH-48" value="(2.1)&#xa;Q Limit cháu" style="" vertex="1" parent="HOX6V1kzmMoWOPEYjEiH-39">
          <mxGeometry x="107.75" y="210" width="114.5" height="50" as="geometry" />
        </mxCell>
        <mxCell id="HOX6V1kzmMoWOPEYjEiH-49" style="edgeStyle=orthogonalEdgeStyle;rounded=0;orthogonalLoop=1;jettySize=auto;html=1;entryX=0;entryY=0.5;entryDx=0;entryDy=0;" edge="1" parent="HOX6V1kzmMoWOPEYjEiH-39" source="HOX6V1kzmMoWOPEYjEiH-50" target="HOX6V1kzmMoWOPEYjEiH-44">
          <mxGeometry relative="1" as="geometry" />
        </mxCell>
        <mxCell id="HOX6V1kzmMoWOPEYjEiH-50" value="(3) &#xa;Duyệt&#xa;Chi tiết Tài sản" style="" vertex="1" parent="HOX6V1kzmMoWOPEYjEiH-39">
          <mxGeometry x="105.50999999999999" y="300" width="114.5" height="50" as="geometry" />
        </mxCell>
        <mxCell id="HOX6V1kzmMoWOPEYjEiH-51" style="edgeStyle=orthogonalEdgeStyle;rounded=0;orthogonalLoop=1;jettySize=auto;html=1;entryX=0.5;entryY=0;entryDx=0;entryDy=0;" edge="1" parent="HOX6V1kzmMoWOPEYjEiH-39" source="HOX6V1kzmMoWOPEYjEiH-43" target="HOX6V1kzmMoWOPEYjEiH-50">
          <mxGeometry relative="1" as="geometry">
            <Array as="points">
              <mxPoint x="493" y="280" />
              <mxPoint x="163" y="280" />
            </Array>
          </mxGeometry>
        </mxCell>
        <mxCell id="HOX6V1kzmMoWOPEYjEiH-52" style="edgeStyle=orthogonalEdgeStyle;rounded=0;orthogonalLoop=1;jettySize=auto;html=1;entryX=0;entryY=0.5;entryDx=0;entryDy=0;" edge="1" parent="HOX6V1kzmMoWOPEYjEiH-39" source="HOX6V1kzmMoWOPEYjEiH-53" target="HOX6V1kzmMoWOPEYjEiH-54">
          <mxGeometry relative="1" as="geometry" />
        </mxCell>
        <mxCell id="HOX6V1kzmMoWOPEYjEiH-53" value="(4) &#xa;Trả lại bút toán" style="" vertex="1" parent="HOX6V1kzmMoWOPEYjEiH-39">
          <mxGeometry x="102.75" y="390" width="114.5" height="50" as="geometry" />
        </mxCell>
        <mxCell id="HOX6V1kzmMoWOPEYjEiH-54" value="" style="ellipse;html=1;shape=endState;fillColor=#000000;strokeColor=#ff0000;fontColor=#FF3333;" vertex="1" parent="HOX6V1kzmMoWOPEYjEiH-39">
          <mxGeometry x="315.5" y="400" width="30" height="30" as="geometry" />
        </mxCell>
        <mxCell id="HOX6V1kzmMoWOPEYjEiH-55" style="edgeStyle=orthogonalEdgeStyle;rounded=0;orthogonalLoop=1;jettySize=auto;html=1;entryX=1;entryY=0.5;entryDx=0;entryDy=0;" edge="1" parent="HOX6V1kzmMoWOPEYjEiH-39" target="HOX6V1kzmMoWOPEYjEiH-54">
          <mxGeometry relative="1" as="geometry">
            <Array as="points">
              <mxPoint x="483" y="415" />
            </Array>
            <mxPoint x="482.79999999999995" y="350" as="sourcePoint" />
          </mxGeometry>
        </mxCell>
        <mxCell id="HOX6V1kzmMoWOPEYjEiH-56" value="" style="endArrow=open;endFill=1;rounded=0;exitX=0.5;exitY=1;exitDx=0;exitDy=0;" edge="1" parent="HOX6V1kzmMoWOPEYjEiH-1" source="HOX6V1kzmMoWOPEYjEiH-62" target="HOX6V1kzmMoWOPEYjEiH-57">
          <mxGeometry relative="1" as="geometry">
            <mxPoint x="336.13" y="330" as="sourcePoint" />
            <mxPoint x="325" y="270" as="targetPoint" />
          </mxGeometry>
        </mxCell>
        <mxCell id="HOX6V1kzmMoWOPEYjEiH-57" value="(2) &#xa;Duyệt Hạch toán" style="" vertex="1" parent="HOX6V1kzmMoWOPEYjEiH-1">
          <mxGeometry x="50" y="332" width="110" height="50" as="geometry" />
        </mxCell>
        <mxCell id="HOX6V1kzmMoWOPEYjEiH-58" value="" style="endArrow=open;endFill=1;rounded=0;" edge="1" parent="HOX6V1kzmMoWOPEYjEiH-1" source="HOX6V1kzmMoWOPEYjEiH-57">
          <mxGeometry relative="1" as="geometry">
            <mxPoint x="333.88" y="392" as="sourcePoint" />
            <mxPoint x="268.8800000000001" y="357" as="targetPoint" />
          </mxGeometry>
        </mxCell>
        <mxCell id="HOX6V1kzmMoWOPEYjEiH-59" style="edgeStyle=orthogonalEdgeStyle;rounded=0;orthogonalLoop=1;jettySize=auto;html=1;" edge="1" parent="HOX6V1kzmMoWOPEYjEiH-1" source="HOX6V1kzmMoWOPEYjEiH-60" target="HOX6V1kzmMoWOPEYjEiH-53">
          <mxGeometry relative="1" as="geometry" />
        </mxCell>
        <mxCell id="HOX6V1kzmMoWOPEYjEiH-60" value="(5) &#xa;Trả lại" style="" vertex="1" parent="HOX6V1kzmMoWOPEYjEiH-1">
          <mxGeometry x="47.25" y="510" width="110" height="50" as="geometry" />
        </mxCell>
        <mxCell id="HOX6V1kzmMoWOPEYjEiH-61" value="Cán bộ duyệt" style="swimlane;whiteSpace=wrap" vertex="1" parent="HOX6V1kzmMoWOPEYjEiH-1">
          <mxGeometry x="30" y="120" width="134.5" height="470" as="geometry" />
        </mxCell>
        <mxCell id="HOX6V1kzmMoWOPEYjEiH-62" value="(1) &#xa;Danh sách &#xa;Công việc chờ duyệt" style="" vertex="1" parent="HOX6V1kzmMoWOPEYjEiH-61">
          <mxGeometry x="20" y="100" width="110" height="50" as="geometry" />
        </mxCell>
        <mxCell id="HOX6V1kzmMoWOPEYjEiH-63" value="" style="ellipse;shape=startState;fillColor=#000000;strokeColor=#ff0000;" vertex="1" parent="HOX6V1kzmMoWOPEYjEiH-61">
          <mxGeometry x="60" y="30" width="30" height="30" as="geometry" />
        </mxCell>
        <mxCell id="HOX6V1kzmMoWOPEYjEiH-64" value="" style="edgeStyle=elbowEdgeStyle;elbow=horizontal;verticalAlign=bottom;endArrow=open;endSize=8;endFill=1;rounded=0" edge="1" parent="HOX6V1kzmMoWOPEYjEiH-61" source="HOX6V1kzmMoWOPEYjEiH-63" target="HOX6V1kzmMoWOPEYjEiH-62">
          <mxGeometry x="345.5" y="40" as="geometry">
            <mxPoint x="360.5" y="110" as="targetPoint" />
          </mxGeometry>
        </mxCell>
      </root>
    </mxGraphModel>
  </diagram>
  <diagram name="GN-HM - Thẻ" id="ewD4jM1dWIz-K7xrqXkW">
    <mxGraphModel dx="1186" dy="690" grid="1" gridSize="10" guides="1" tooltips="1" connect="1" arrows="1" fold="1" page="1" pageScale="1" pageWidth="1169" pageHeight="826" background="#ffffff" math="0" shadow="0">
      <root>
        <mxCell id="c3ydhGyLxHjjmrgURX9u-0" />
        <mxCell id="c3ydhGyLxHjjmrgURX9u-1" parent="c3ydhGyLxHjjmrgURX9u-0" />
        <mxCell id="_al22BtGfa9yC4ijB9kX-0" value="SeAOps" style="swimlane;whiteSpace=wrap" parent="c3ydhGyLxHjjmrgURX9u-1" vertex="1">
          <mxGeometry x="164.5" y="120" width="595.5" height="860" as="geometry" />
        </mxCell>
        <mxCell id="_al22BtGfa9yC4ijB9kX-5" value="(3.2) &#xa;Hạch toán Limit Thẻ" style="" parent="_al22BtGfa9yC4ijB9kX-0" vertex="1">
          <mxGeometry x="107.75" y="160" width="113.37" height="50" as="geometry" />
        </mxCell>
        <mxCell id="_al22BtGfa9yC4ijB9kX-6" value="(3.4) &#xa;Hạch toán &#xa;Tài khoản trung gian" style="" parent="_al22BtGfa9yC4ijB9kX-0" vertex="1">
          <mxGeometry x="85.5" y="710" width="114.5" height="50" as="geometry" />
        </mxCell>
        <mxCell id="_al22BtGfa9yC4ijB9kX-10" value="" style="endArrow=open;strokeColor=#FF0000;endFill=1;rounded=0;exitX=1;exitY=0.5;exitDx=0;exitDy=0;entryX=0;entryY=0.5;entryDx=0;entryDy=0;" parent="_al22BtGfa9yC4ijB9kX-0" source="_al22BtGfa9yC4ijB9kX-6" target="_al22BtGfa9yC4ijB9kX-9" edge="1">
          <mxGeometry relative="1" as="geometry">
            <mxPoint x="215" y="929" as="sourcePoint" />
            <mxPoint x="400.5" y="735" as="targetPoint" />
            <Array as="points" />
          </mxGeometry>
        </mxCell>
        <mxCell id="_al22BtGfa9yC4ijB9kX-11" value="T24" style="swimlane;whiteSpace=wrap" parent="_al22BtGfa9yC4ijB9kX-0" vertex="1">
          <mxGeometry x="405.5" width="190" height="860" as="geometry" />
        </mxCell>
        <mxCell id="_al22BtGfa9yC4ijB9kX-13" value="(3.2.1) &#xa;Commit Limit Thẻ" style="" parent="_al22BtGfa9yC4ijB9kX-11" vertex="1">
          <mxGeometry x="16.12" y="160" width="114.5" height="50" as="geometry" />
        </mxCell>
        <mxCell id="_al22BtGfa9yC4ijB9kX-9" value="(3.4.1) &#xa;Commit&#xa;Tài khoản Trung gian" style="" parent="_al22BtGfa9yC4ijB9kX-11" vertex="1">
          <mxGeometry x="15" y="710" width="114.5" height="50" as="geometry" />
        </mxCell>
        <mxCell id="2URFPMOPyjB7ds7tftzU-12" value="" style="endArrow=open;strokeColor=#FF0000;endFill=1;rounded=0;exitX=0.5;exitY=1;exitDx=0;exitDy=0;" parent="_al22BtGfa9yC4ijB9kX-11" source="_al22BtGfa9yC4ijB9kX-9" edge="1">
          <mxGeometry relative="1" as="geometry">
            <mxPoint x="50.86999999999989" y="760" as="sourcePoint" />
            <mxPoint x="72.25" y="810" as="targetPoint" />
          </mxGeometry>
        </mxCell>
        <mxCell id="2URFPMOPyjB7ds7tftzU-0" value="" style="ellipse;html=1;shape=endState;fillColor=#000000;strokeColor=#ff0000;fontColor=#FF3333;" parent="_al22BtGfa9yC4ijB9kX-11" vertex="1">
          <mxGeometry x="57.25" y="810" width="30" height="30" as="geometry" />
        </mxCell>
        <mxCell id="_al22BtGfa9yC4ijB9kX-18" value="" style="endArrow=open;strokeColor=#FF0000;endFill=1;rounded=0;exitX=1;exitY=0.5;exitDx=0;exitDy=0;entryX=0;entryY=0.5;entryDx=0;entryDy=0;" parent="_al22BtGfa9yC4ijB9kX-0" source="_al22BtGfa9yC4ijB9kX-5" target="_al22BtGfa9yC4ijB9kX-13" edge="1">
          <mxGeometry relative="1" as="geometry">
            <mxPoint x="225.5000000000001" y="116" as="sourcePoint" />
            <mxPoint x="431.62" y="116" as="targetPoint" />
          </mxGeometry>
        </mxCell>
        <mxCell id="_al22BtGfa9yC4ijB9kX-19" value="" style="endArrow=open;strokeColor=#FF0000;endFill=1;rounded=0;entryX=1;entryY=0.5;entryDx=0;entryDy=0;" parent="_al22BtGfa9yC4ijB9kX-0" target="2URFPMOPyjB7ds7tftzU-8" edge="1">
          <mxGeometry relative="1" as="geometry">
            <mxPoint x="477.5" y="210" as="sourcePoint" />
            <mxPoint x="152.75" y="410" as="targetPoint" />
            <Array as="points">
              <mxPoint x="477.5" y="309" />
            </Array>
          </mxGeometry>
        </mxCell>
        <mxCell id="2URFPMOPyjB7ds7tftzU-1" value="(1) &#xa;Hạch toán &#xa;mã quyền tài sản" style="" parent="_al22BtGfa9yC4ijB9kX-0" vertex="1">
          <mxGeometry x="101" y="422" width="110" height="50" as="geometry" />
        </mxCell>
        <mxCell id="2URFPMOPyjB7ds7tftzU-2" value="(2) &#xa;Hạch toán&#xa;Chi tiết tài sản&#xa;Và chi tiết loại tài sản" style="" parent="_al22BtGfa9yC4ijB9kX-0" vertex="1">
          <mxGeometry x="85.5" y="550" width="140" height="60" as="geometry" />
        </mxCell>
        <mxCell id="2URFPMOPyjB7ds7tftzU-3" value="" style="endArrow=open;strokeColor=#FF0000;endFill=1;rounded=0;exitX=1;exitY=0.5;exitDx=0;exitDy=0;entryX=0;entryY=0.5;entryDx=0;entryDy=0;" parent="_al22BtGfa9yC4ijB9kX-0" source="2URFPMOPyjB7ds7tftzU-2" target="2URFPMOPyjB7ds7tftzU-5" edge="1">
          <mxGeometry relative="1" as="geometry">
            <mxPoint x="-164.12" y="262" as="sourcePoint" />
            <mxPoint x="122" y="220" as="targetPoint" />
          </mxGeometry>
        </mxCell>
        <mxCell id="2URFPMOPyjB7ds7tftzU-4" value="(1.1) &#xa;Commit và &#xa;duyệt Quyền TS" style="" parent="_al22BtGfa9yC4ijB9kX-0" vertex="1">
          <mxGeometry x="421.62" y="420" width="114.5" height="50" as="geometry" />
        </mxCell>
        <mxCell id="2URFPMOPyjB7ds7tftzU-5" value="(2.1) &#xa;Commit &#xa;Chi tiết Tài sản" style="" parent="_al22BtGfa9yC4ijB9kX-0" vertex="1">
          <mxGeometry x="421.62" y="555" width="114.5" height="50" as="geometry" />
        </mxCell>
        <mxCell id="2URFPMOPyjB7ds7tftzU-6" value="" style="endArrow=open;strokeColor=#FF0000;endFill=1;rounded=0;exitX=1;exitY=0.5;exitDx=0;exitDy=0;" parent="_al22BtGfa9yC4ijB9kX-0" source="2URFPMOPyjB7ds7tftzU-1" target="2URFPMOPyjB7ds7tftzU-4" edge="1">
          <mxGeometry relative="1" as="geometry">
            <mxPoint x="-113.49999999999989" y="205" as="sourcePoint" />
            <mxPoint x="-171.38" y="260" as="targetPoint" />
          </mxGeometry>
        </mxCell>
        <mxCell id="2URFPMOPyjB7ds7tftzU-7" value="" style="endArrow=open;strokeColor=#FF0000;endFill=1;rounded=0;entryX=0.5;entryY=0;entryDx=0;entryDy=0;" parent="_al22BtGfa9yC4ijB9kX-0" target="2URFPMOPyjB7ds7tftzU-2" edge="1">
          <mxGeometry relative="1" as="geometry">
            <mxPoint x="481" y="470" as="sourcePoint" />
            <mxPoint x="-170" y="250" as="targetPoint" />
            <Array as="points">
              <mxPoint x="481" y="510" />
              <mxPoint x="156" y="510" />
            </Array>
          </mxGeometry>
        </mxCell>
        <mxCell id="2URFPMOPyjB7ds7tftzU-8" value="Có Hạch toán tài sản" style="rhombus;fillColor=#ffffc0;strokeColor=#ff0000;" parent="_al22BtGfa9yC4ijB9kX-0" vertex="1">
          <mxGeometry x="95.5" y="270" width="124.5" height="78" as="geometry" />
        </mxCell>
        <mxCell id="2URFPMOPyjB7ds7tftzU-9" value="Có" style="endArrow=open;strokeColor=#FF0000;endFill=1;rounded=0;exitX=0.5;exitY=1;exitDx=0;exitDy=0;" parent="_al22BtGfa9yC4ijB9kX-0" source="2URFPMOPyjB7ds7tftzU-8" edge="1">
          <mxGeometry relative="1" as="geometry">
            <mxPoint x="-114" y="227" as="sourcePoint" />
            <mxPoint x="158.5" y="420" as="targetPoint" />
            <Array as="points" />
          </mxGeometry>
        </mxCell>
        <mxCell id="2URFPMOPyjB7ds7tftzU-10" value="Không" style="endArrow=open;strokeColor=#FF0000;endFill=1;rounded=0;exitX=0;exitY=0.5;exitDx=0;exitDy=0;entryX=0;entryY=0.5;entryDx=0;entryDy=0;" parent="_al22BtGfa9yC4ijB9kX-0" source="2URFPMOPyjB7ds7tftzU-8" target="_al22BtGfa9yC4ijB9kX-6" edge="1">
          <mxGeometry relative="1" as="geometry">
            <mxPoint x="-100.75" y="69" as="sourcePoint" />
            <mxPoint x="411" y="189" as="targetPoint" />
            <Array as="points">
              <mxPoint x="35.5" y="309" />
              <mxPoint x="35.5" y="735" />
            </Array>
          </mxGeometry>
        </mxCell>
        <mxCell id="2URFPMOPyjB7ds7tftzU-15" value="" style="endArrow=open;strokeColor=#FF0000;endFill=1;rounded=0;entryX=0.611;entryY=0;entryDx=0;entryDy=0;entryPerimeter=0;" parent="_al22BtGfa9yC4ijB9kX-0" target="_al22BtGfa9yC4ijB9kX-6" edge="1">
          <mxGeometry relative="1" as="geometry">
            <mxPoint x="481" y="605" as="sourcePoint" />
            <mxPoint x="155.5" y="685" as="targetPoint" />
            <Array as="points">
              <mxPoint x="481" y="645" />
              <mxPoint x="156" y="645" />
            </Array>
          </mxGeometry>
        </mxCell>
        <mxCell id="_al22BtGfa9yC4ijB9kX-3" value="(1) &#xa;Tạo công việc&#xa; Hạch toán" style="" parent="c3ydhGyLxHjjmrgURX9u-1" vertex="1">
          <mxGeometry x="20" y="200" width="130" height="50" as="geometry" />
        </mxCell>
        <mxCell id="_al22BtGfa9yC4ijB9kX-7" value="(2) &#xa;Nhập template &#xa;Hạn mức thẻ tín dụng" style="" parent="c3ydhGyLxHjjmrgURX9u-1" vertex="1">
          <mxGeometry x="21.13" y="280" width="128.87" height="50" as="geometry" />
        </mxCell>
        <mxCell id="_al22BtGfa9yC4ijB9kX-26" value="" style="endArrow=open;strokeColor=#FF0000;endFill=1;rounded=0;exitX=0.5;exitY=1;exitDx=0;exitDy=0;entryX=0.5;entryY=0;entryDx=0;entryDy=0;" parent="c3ydhGyLxHjjmrgURX9u-1" source="_al22BtGfa9yC4ijB9kX-3" edge="1" target="_al22BtGfa9yC4ijB9kX-7">
          <mxGeometry relative="1" as="geometry">
            <mxPoint x="86.13" y="338" as="sourcePoint" />
            <mxPoint x="75" y="278" as="targetPoint" />
          </mxGeometry>
        </mxCell>
        <mxCell id="_al22BtGfa9yC4ijB9kX-8" value="" style="endArrow=open;strokeColor=#FF0000;endFill=1;rounded=0;exitX=1;exitY=0.5;exitDx=0;exitDy=0;" parent="c3ydhGyLxHjjmrgURX9u-1" source="_al22BtGfa9yC4ijB9kX-7" target="_al22BtGfa9yC4ijB9kX-5" edge="1">
          <mxGeometry relative="1" as="geometry">
            <mxPoint x="333.88" y="392" as="sourcePoint" />
            <mxPoint x="328" y="419" as="targetPoint" />
          </mxGeometry>
        </mxCell>
        <mxCell id="iqVNM5HrIYQoLVYYeUsY-0" value="Cán bộ nhập" style="swimlane;whiteSpace=wrap" vertex="1" parent="c3ydhGyLxHjjmrgURX9u-1">
          <mxGeometry x="10" y="120" width="154.5" height="860" as="geometry" />
        </mxCell>
        <mxCell id="_al22BtGfa9yC4ijB9kX-1" value="" style="ellipse;shape=startState;fillColor=#000000;strokeColor=#ff0000;" parent="iqVNM5HrIYQoLVYYeUsY-0" vertex="1">
          <mxGeometry x="60" y="20" width="30" height="30" as="geometry" />
        </mxCell>
        <mxCell id="iqVNM5HrIYQoLVYYeUsY-1" style="edgeStyle=orthogonalEdgeStyle;rounded=0;orthogonalLoop=1;jettySize=auto;html=1;entryX=0.5;entryY=0;entryDx=0;entryDy=0;" edge="1" parent="c3ydhGyLxHjjmrgURX9u-1" source="_al22BtGfa9yC4ijB9kX-1" target="_al22BtGfa9yC4ijB9kX-3">
          <mxGeometry relative="1" as="geometry" />
        </mxCell>
      </root>
    </mxGraphModel>
  </diagram>
  <diagram name="Duyet-HM - Thẻ" id="8CLnjnWc1pMddP29QdHd">
    <mxGraphModel dx="1186" dy="690" grid="1" gridSize="10" guides="1" tooltips="1" connect="1" arrows="1" fold="1" page="1" pageScale="1" pageWidth="1169" pageHeight="826" background="#ffffff" math="0" shadow="0">
      <root>
        <mxCell id="XBMnffTaDjQYjwXSfJ9l-0" />
        <mxCell id="XBMnffTaDjQYjwXSfJ9l-1" parent="XBMnffTaDjQYjwXSfJ9l-0" />
        <mxCell id="XBMnffTaDjQYjwXSfJ9l-2" value="SeAOps" style="swimlane;whiteSpace=wrap" vertex="1" parent="XBMnffTaDjQYjwXSfJ9l-1">
          <mxGeometry x="164.5" y="120" width="595.5" height="860" as="geometry" />
        </mxCell>
        <mxCell id="XBMnffTaDjQYjwXSfJ9l-3" value="(2.1) &#xa;Duyệt Limit thẻ" style="" vertex="1" parent="XBMnffTaDjQYjwXSfJ9l-2">
          <mxGeometry x="112.13" y="194" width="113.37" height="50" as="geometry" />
        </mxCell>
        <mxCell id="XBMnffTaDjQYjwXSfJ9l-4" value="(4.1) &#xa;Duyệt&#xa;Tài khoản trung gian" style="" vertex="1" parent="XBMnffTaDjQYjwXSfJ9l-2">
          <mxGeometry x="85.5" y="484" width="114.5" height="50" as="geometry" />
        </mxCell>
        <mxCell id="XBMnffTaDjQYjwXSfJ9l-5" value="" style="endArrow=open;endFill=1;rounded=0;exitX=1;exitY=0.5;exitDx=0;exitDy=0;entryX=0;entryY=0.5;entryDx=0;entryDy=0;" edge="1" parent="XBMnffTaDjQYjwXSfJ9l-2" source="XBMnffTaDjQYjwXSfJ9l-4" target="XBMnffTaDjQYjwXSfJ9l-8">
          <mxGeometry relative="1" as="geometry">
            <mxPoint x="215" y="703" as="sourcePoint" />
            <mxPoint x="400.5" y="509" as="targetPoint" />
            <Array as="points" />
          </mxGeometry>
        </mxCell>
        <mxCell id="XBMnffTaDjQYjwXSfJ9l-6" value="T24" style="swimlane;whiteSpace=wrap" vertex="1" parent="XBMnffTaDjQYjwXSfJ9l-2">
          <mxGeometry x="405.5" width="190" height="860" as="geometry" />
        </mxCell>
        <mxCell id="XBMnffTaDjQYjwXSfJ9l-7" value="(2.2) &#xa;Duyệt Limit Thẻ" style="" vertex="1" parent="XBMnffTaDjQYjwXSfJ9l-6">
          <mxGeometry x="15" y="194" width="114.5" height="50" as="geometry" />
        </mxCell>
        <mxCell id="XBMnffTaDjQYjwXSfJ9l-8" value="(4.2) &#xa;Duyệt&#xa;Tài khoản Trung gian" style="" vertex="1" parent="XBMnffTaDjQYjwXSfJ9l-6">
          <mxGeometry x="15" y="484" width="114.5" height="50" as="geometry" />
        </mxCell>
        <mxCell id="XBMnffTaDjQYjwXSfJ9l-11" value="" style="endArrow=open;endFill=1;rounded=0;exitX=1;exitY=0.5;exitDx=0;exitDy=0;entryX=0;entryY=0.5;entryDx=0;entryDy=0;" edge="1" parent="XBMnffTaDjQYjwXSfJ9l-2" source="XBMnffTaDjQYjwXSfJ9l-3" target="XBMnffTaDjQYjwXSfJ9l-7">
          <mxGeometry relative="1" as="geometry">
            <mxPoint x="225.5000000000001" y="116" as="sourcePoint" />
            <mxPoint x="431.62" y="116" as="targetPoint" />
          </mxGeometry>
        </mxCell>
        <mxCell id="XBMnffTaDjQYjwXSfJ9l-14" value="(3.1) &#xa;Duyệt&#xa;Chi tiết tài sản&#xa;Và chi tiết loại tài sản" style="" vertex="1" parent="XBMnffTaDjQYjwXSfJ9l-2">
          <mxGeometry x="85.5" y="324" width="140" height="60" as="geometry" />
        </mxCell>
        <mxCell id="XBMnffTaDjQYjwXSfJ9l-15" value="" style="endArrow=open;endFill=1;rounded=0;exitX=1;exitY=0.5;exitDx=0;exitDy=0;entryX=0;entryY=0.5;entryDx=0;entryDy=0;" edge="1" parent="XBMnffTaDjQYjwXSfJ9l-2" source="XBMnffTaDjQYjwXSfJ9l-14" target="XBMnffTaDjQYjwXSfJ9l-17">
          <mxGeometry relative="1" as="geometry">
            <mxPoint x="-164.12" y="36" as="sourcePoint" />
            <mxPoint x="122" y="-6" as="targetPoint" />
          </mxGeometry>
        </mxCell>
        <mxCell id="XBMnffTaDjQYjwXSfJ9l-17" value="(3.2) &#xa;Duyệt&#xa;Chi tiết Tài sản" style="" vertex="1" parent="XBMnffTaDjQYjwXSfJ9l-2">
          <mxGeometry x="421.62" y="329" width="114.5" height="50" as="geometry" />
        </mxCell>
        <mxCell id="XBMnffTaDjQYjwXSfJ9l-19" value="" style="endArrow=open;endFill=1;rounded=0;entryX=0.5;entryY=0;entryDx=0;entryDy=0;" edge="1" parent="XBMnffTaDjQYjwXSfJ9l-2" target="XBMnffTaDjQYjwXSfJ9l-14">
          <mxGeometry relative="1" as="geometry">
            <mxPoint x="481" y="244" as="sourcePoint" />
            <mxPoint x="-170" y="24" as="targetPoint" />
            <Array as="points">
              <mxPoint x="481" y="284" />
              <mxPoint x="156" y="284" />
            </Array>
          </mxGeometry>
        </mxCell>
        <mxCell id="XBMnffTaDjQYjwXSfJ9l-23" value="" style="endArrow=open;endFill=1;rounded=0;entryX=0.611;entryY=0;entryDx=0;entryDy=0;entryPerimeter=0;" edge="1" parent="XBMnffTaDjQYjwXSfJ9l-2" target="XBMnffTaDjQYjwXSfJ9l-4">
          <mxGeometry relative="1" as="geometry">
            <mxPoint x="481" y="379" as="sourcePoint" />
            <mxPoint x="155.5" y="459" as="targetPoint" />
            <Array as="points">
              <mxPoint x="481" y="419" />
              <mxPoint x="156" y="419" />
            </Array>
          </mxGeometry>
        </mxCell>
        <mxCell id="XBMnffTaDjQYjwXSfJ9l-10" value="" style="ellipse;html=1;shape=endState;fillColor=#000000;strokeColor=#ff0000;fontColor=#FF3333;" vertex="1" parent="XBMnffTaDjQYjwXSfJ9l-2">
          <mxGeometry x="295.5" y="590" width="30" height="30" as="geometry" />
        </mxCell>
        <mxCell id="xg1Bt7Sem0o_poroQNi3-6" style="edgeStyle=orthogonalEdgeStyle;rounded=0;orthogonalLoop=1;jettySize=auto;html=1;" edge="1" parent="XBMnffTaDjQYjwXSfJ9l-2" source="xg1Bt7Sem0o_poroQNi3-4" target="XBMnffTaDjQYjwXSfJ9l-10">
          <mxGeometry relative="1" as="geometry" />
        </mxCell>
        <mxCell id="xg1Bt7Sem0o_poroQNi3-4" value="(5.1) &#xa;Trả lại bút toán" style="" vertex="1" parent="XBMnffTaDjQYjwXSfJ9l-2">
          <mxGeometry x="90" y="580" width="110" height="50" as="geometry" />
        </mxCell>
        <mxCell id="XBMnffTaDjQYjwXSfJ9l-9" value="" style="endArrow=open;endFill=1;rounded=0;exitX=0.5;exitY=1;exitDx=0;exitDy=0;entryX=1;entryY=0.5;entryDx=0;entryDy=0;" edge="1" parent="XBMnffTaDjQYjwXSfJ9l-2" source="XBMnffTaDjQYjwXSfJ9l-8" target="XBMnffTaDjQYjwXSfJ9l-10">
          <mxGeometry relative="1" as="geometry">
            <mxPoint x="456.3699999999999" y="534" as="sourcePoint" />
            <mxPoint x="477.75" y="584" as="targetPoint" />
            <Array as="points">
              <mxPoint x="477.5" y="605" />
            </Array>
          </mxGeometry>
        </mxCell>
        <mxCell id="XBMnffTaDjQYjwXSfJ9l-26" value="" style="endArrow=open;strokeColor=#FF0000;endFill=1;rounded=0;exitX=0.5;exitY=1;exitDx=0;exitDy=0;entryX=0.5;entryY=0;entryDx=0;entryDy=0;" edge="1" parent="XBMnffTaDjQYjwXSfJ9l-1" source="XBMnffTaDjQYjwXSfJ9l-24">
          <mxGeometry relative="1" as="geometry">
            <mxPoint x="86.13" y="338" as="sourcePoint" />
            <mxPoint x="85.56500000000005" y="280" as="targetPoint" />
          </mxGeometry>
        </mxCell>
        <mxCell id="XBMnffTaDjQYjwXSfJ9l-27" value="" style="endArrow=open;endFill=1;rounded=0;exitX=1;exitY=0.5;exitDx=0;exitDy=0;" edge="1" parent="XBMnffTaDjQYjwXSfJ9l-1" source="xg1Bt7Sem0o_poroQNi3-0" target="XBMnffTaDjQYjwXSfJ9l-3">
          <mxGeometry relative="1" as="geometry">
            <mxPoint x="150" y="305" as="sourcePoint" />
            <mxPoint x="328" y="419" as="targetPoint" />
          </mxGeometry>
        </mxCell>
        <mxCell id="XBMnffTaDjQYjwXSfJ9l-28" value="Cán bộ Duyệt" style="swimlane;whiteSpace=wrap" vertex="1" parent="XBMnffTaDjQYjwXSfJ9l-1">
          <mxGeometry x="10" y="120" width="154.5" height="860" as="geometry" />
        </mxCell>
        <mxCell id="XBMnffTaDjQYjwXSfJ9l-29" value="" style="ellipse;shape=startState;fillColor=#000000;strokeColor=#ff0000;" vertex="1" parent="XBMnffTaDjQYjwXSfJ9l-28">
          <mxGeometry x="60" y="20" width="30" height="30" as="geometry" />
        </mxCell>
        <mxCell id="xg1Bt7Sem0o_poroQNi3-0" value="(2) &#xa;Duyệt Hạch toán" style="" vertex="1" parent="XBMnffTaDjQYjwXSfJ9l-28">
          <mxGeometry x="22.75" y="194" width="110" height="50" as="geometry" />
        </mxCell>
        <mxCell id="xg1Bt7Sem0o_poroQNi3-1" value="(5) &#xa;Trả lại" style="" vertex="1" parent="XBMnffTaDjQYjwXSfJ9l-28">
          <mxGeometry x="20" y="580" width="110" height="50" as="geometry" />
        </mxCell>
        <mxCell id="xg1Bt7Sem0o_poroQNi3-3" style="edgeStyle=orthogonalEdgeStyle;rounded=0;orthogonalLoop=1;jettySize=auto;html=1;entryX=0.5;entryY=0;entryDx=0;entryDy=0;" edge="1" parent="XBMnffTaDjQYjwXSfJ9l-28" source="xg1Bt7Sem0o_poroQNi3-2" target="xg1Bt7Sem0o_poroQNi3-0">
          <mxGeometry relative="1" as="geometry" />
        </mxCell>
        <mxCell id="xg1Bt7Sem0o_poroQNi3-2" value="(1) &#xa;Danh sách &#xa;Công việc chờ duyệt" style="" vertex="1" parent="XBMnffTaDjQYjwXSfJ9l-28">
          <mxGeometry x="22.75" y="82" width="110" height="50" as="geometry" />
        </mxCell>
        <mxCell id="XBMnffTaDjQYjwXSfJ9l-30" style="edgeStyle=orthogonalEdgeStyle;rounded=0;orthogonalLoop=1;jettySize=auto;html=1;entryX=0.5;entryY=0;entryDx=0;entryDy=0;" edge="1" parent="XBMnffTaDjQYjwXSfJ9l-1" source="XBMnffTaDjQYjwXSfJ9l-29">
          <mxGeometry relative="1" as="geometry">
            <mxPoint x="85" y="200" as="targetPoint" />
          </mxGeometry>
        </mxCell>
        <mxCell id="xg1Bt7Sem0o_poroQNi3-5" style="edgeStyle=orthogonalEdgeStyle;rounded=0;orthogonalLoop=1;jettySize=auto;html=1;" edge="1" parent="XBMnffTaDjQYjwXSfJ9l-1" source="xg1Bt7Sem0o_poroQNi3-1" target="xg1Bt7Sem0o_poroQNi3-4">
          <mxGeometry relative="1" as="geometry" />
        </mxCell>
      </root>
    </mxGraphModel>
  </diagram>
  <diagram name="GN-HM - Thấu chi" id="J0b_rYZxqYwrh17L2cxM">
    <mxGraphModel dx="1186" dy="690" grid="1" gridSize="10" guides="1" tooltips="1" connect="1" arrows="1" fold="1" page="1" pageScale="1" pageWidth="1169" pageHeight="826" background="#ffffff" math="0" shadow="0">
      <root>
        <mxCell id="6vNpDCm_xEUdGCy6Mp75-0" />
        <mxCell id="6vNpDCm_xEUdGCy6Mp75-1" parent="6vNpDCm_xEUdGCy6Mp75-0" />
        <mxCell id="6vNpDCm_xEUdGCy6Mp75-2" value="SeAOps" style="swimlane;whiteSpace=wrap" parent="6vNpDCm_xEUdGCy6Mp75-1" vertex="1">
          <mxGeometry x="164.5" y="120" width="595.5" height="1120" as="geometry" />
        </mxCell>
        <mxCell id="6vNpDCm_xEUdGCy6Mp75-6" value="(3.1) &#xa;Hạch toán Ref" style="" parent="6vNpDCm_xEUdGCy6Mp75-2" vertex="1">
          <mxGeometry x="106.63" y="150" width="110" height="50" as="geometry" />
        </mxCell>
        <mxCell id="6vNpDCm_xEUdGCy6Mp75-7" value="(3.2) &#xa;Hạch toán &#xa;Limit Thấu chi" style="" parent="6vNpDCm_xEUdGCy6Mp75-2" vertex="1">
          <mxGeometry x="106.63" y="299" width="113.37" height="50" as="geometry" />
        </mxCell>
        <mxCell id="6vNpDCm_xEUdGCy6Mp75-8" value="(3.4) &#xa;Hạch toán Tài khoản&#xa; Thấu chi" style="" parent="6vNpDCm_xEUdGCy6Mp75-2" vertex="1">
          <mxGeometry x="85.5" y="850" width="114.5" height="50" as="geometry" />
        </mxCell>
        <mxCell id="6vNpDCm_xEUdGCy6Mp75-12" value="" style="endArrow=open;strokeColor=#FF0000;endFill=1;rounded=0;exitX=1;exitY=0.5;exitDx=0;exitDy=0;entryX=0;entryY=0.5;entryDx=0;entryDy=0;" parent="6vNpDCm_xEUdGCy6Mp75-2" source="6vNpDCm_xEUdGCy6Mp75-8" target="6vNpDCm_xEUdGCy6Mp75-11" edge="1">
          <mxGeometry relative="1" as="geometry">
            <mxPoint x="215" y="1069" as="sourcePoint" />
            <mxPoint x="400.5" y="875" as="targetPoint" />
            <Array as="points" />
          </mxGeometry>
        </mxCell>
        <mxCell id="6vNpDCm_xEUdGCy6Mp75-13" value="T24" style="swimlane;whiteSpace=wrap" parent="6vNpDCm_xEUdGCy6Mp75-2" vertex="1">
          <mxGeometry x="405.5" width="190" height="1120" as="geometry" />
        </mxCell>
        <mxCell id="6vNpDCm_xEUdGCy6Mp75-14" value="(3.1.1) &#xa;Commit và &#xa;duyệt REF" style="" parent="6vNpDCm_xEUdGCy6Mp75-13" vertex="1">
          <mxGeometry x="15" y="150" width="114.5" height="50" as="geometry" />
        </mxCell>
        <mxCell id="6vNpDCm_xEUdGCy6Mp75-15" value="(3.2.1) &#xa;Commit &#xa;Limit Thấu chi" style="" parent="6vNpDCm_xEUdGCy6Mp75-13" vertex="1">
          <mxGeometry x="15" y="299" width="114.5" height="50" as="geometry" />
        </mxCell>
        <mxCell id="6vNpDCm_xEUdGCy6Mp75-11" value="(3.4.1) &#xa;Commit Tài khoản&#xa;Thấu chi" style="" parent="6vNpDCm_xEUdGCy6Mp75-13" vertex="1">
          <mxGeometry x="15" y="850" width="114.5" height="50" as="geometry" />
        </mxCell>
        <mxCell id="6vNpDCm_xEUdGCy6Mp75-18" value="" style="endArrow=open;strokeColor=#FF0000;endFill=1;rounded=0;exitX=1;exitY=0.5;exitDx=0;exitDy=0;" parent="6vNpDCm_xEUdGCy6Mp75-2" source="6vNpDCm_xEUdGCy6Mp75-6" target="6vNpDCm_xEUdGCy6Mp75-14" edge="1">
          <mxGeometry relative="1" as="geometry">
            <mxPoint x="165.75" y="208" as="sourcePoint" />
            <mxPoint x="158.75" y="230" as="targetPoint" />
          </mxGeometry>
        </mxCell>
        <mxCell id="6vNpDCm_xEUdGCy6Mp75-19" value="" style="endArrow=open;strokeColor=#FF0000;endFill=1;rounded=0;entryX=0.44;entryY=0.02;entryDx=0;entryDy=0;exitX=0.5;exitY=1;exitDx=0;exitDy=0;entryPerimeter=0;" parent="6vNpDCm_xEUdGCy6Mp75-2" source="6vNpDCm_xEUdGCy6Mp75-14" target="6vNpDCm_xEUdGCy6Mp75-7" edge="1">
          <mxGeometry relative="1" as="geometry">
            <mxPoint x="327.75" y="434" as="sourcePoint" />
            <mxPoint x="430.5" y="475" as="targetPoint" />
            <Array as="points">
              <mxPoint x="477.5" y="280" />
              <mxPoint x="156.5" y="280" />
            </Array>
          </mxGeometry>
        </mxCell>
        <mxCell id="6vNpDCm_xEUdGCy6Mp75-20" value="" style="endArrow=open;strokeColor=#FF0000;endFill=1;rounded=0;exitX=1;exitY=0.5;exitDx=0;exitDy=0;entryX=0;entryY=0.5;entryDx=0;entryDy=0;" parent="6vNpDCm_xEUdGCy6Mp75-2" source="6vNpDCm_xEUdGCy6Mp75-7" target="6vNpDCm_xEUdGCy6Mp75-15" edge="1">
          <mxGeometry relative="1" as="geometry">
            <mxPoint x="224.3800000000001" y="255" as="sourcePoint" />
            <mxPoint x="430.5" y="255" as="targetPoint" />
          </mxGeometry>
        </mxCell>
        <mxCell id="3PCG1CoG8o02MG2Kr6so-1" value="" style="ellipse;html=1;shape=endState;fillColor=#000000;strokeColor=#ff0000;fontColor=#FF3333;" parent="6vNpDCm_xEUdGCy6Mp75-2" vertex="1">
          <mxGeometry x="265.5" y="930" width="30" height="30" as="geometry" />
        </mxCell>
        <mxCell id="3PCG1CoG8o02MG2Kr6so-0" value="" style="endArrow=open;strokeColor=#FF0000;endFill=1;rounded=0;exitX=0.5;exitY=1;exitDx=0;exitDy=0;" parent="6vNpDCm_xEUdGCy6Mp75-2" source="6vNpDCm_xEUdGCy6Mp75-11" target="3PCG1CoG8o02MG2Kr6so-1" edge="1">
          <mxGeometry relative="1" as="geometry">
            <mxPoint x="477.75" y="990" as="sourcePoint" />
            <mxPoint x="-325.3800000000001" y="745" as="targetPoint" />
            <Array as="points">
              <mxPoint x="477.5" y="942" />
            </Array>
          </mxGeometry>
        </mxCell>
        <mxCell id="bYfmTsaXpKSk-u-rqzPg-0" value="(1) &#xa;Hạch toán &#xa;mã quyền tài sản" style="" parent="6vNpDCm_xEUdGCy6Mp75-1" vertex="1">
          <mxGeometry x="265.5" y="682" width="110" height="50" as="geometry" />
        </mxCell>
        <mxCell id="bYfmTsaXpKSk-u-rqzPg-1" value="(2) &#xa;Hạch toán&#xa;Chi tiết tài sản&#xa;Và chi tiết loại tài sản" style="" parent="6vNpDCm_xEUdGCy6Mp75-1" vertex="1">
          <mxGeometry x="250" y="810" width="140" height="60" as="geometry" />
        </mxCell>
        <mxCell id="bYfmTsaXpKSk-u-rqzPg-2" value="" style="endArrow=open;strokeColor=#FF0000;endFill=1;rounded=0;exitX=1;exitY=0.5;exitDx=0;exitDy=0;entryX=0;entryY=0.5;entryDx=0;entryDy=0;" parent="6vNpDCm_xEUdGCy6Mp75-1" source="bYfmTsaXpKSk-u-rqzPg-1" target="bYfmTsaXpKSk-u-rqzPg-4" edge="1">
          <mxGeometry relative="1" as="geometry">
            <mxPoint x="-164.12" y="402" as="sourcePoint" />
            <mxPoint x="122" y="360" as="targetPoint" />
          </mxGeometry>
        </mxCell>
        <mxCell id="bYfmTsaXpKSk-u-rqzPg-3" value="(1.1) &#xa;Commit và &#xa;duyệt Quyền TS" style="" parent="6vNpDCm_xEUdGCy6Mp75-1" vertex="1">
          <mxGeometry x="586.12" y="680" width="114.5" height="50" as="geometry" />
        </mxCell>
        <mxCell id="bYfmTsaXpKSk-u-rqzPg-4" value="(2.1) &#xa;Commit &#xa;Chi tiết Tài sản" style="" parent="6vNpDCm_xEUdGCy6Mp75-1" vertex="1">
          <mxGeometry x="586.12" y="815" width="114.5" height="50" as="geometry" />
        </mxCell>
        <mxCell id="bYfmTsaXpKSk-u-rqzPg-5" value="" style="endArrow=open;strokeColor=#FF0000;endFill=1;rounded=0;exitX=1;exitY=0.5;exitDx=0;exitDy=0;" parent="6vNpDCm_xEUdGCy6Mp75-1" source="bYfmTsaXpKSk-u-rqzPg-0" target="bYfmTsaXpKSk-u-rqzPg-3" edge="1">
          <mxGeometry relative="1" as="geometry">
            <mxPoint x="-113.49999999999989" y="345" as="sourcePoint" />
            <mxPoint x="-171.38" y="400" as="targetPoint" />
          </mxGeometry>
        </mxCell>
        <mxCell id="bYfmTsaXpKSk-u-rqzPg-6" value="" style="endArrow=open;strokeColor=#FF0000;endFill=1;rounded=0;entryX=0.5;entryY=0;entryDx=0;entryDy=0;" parent="6vNpDCm_xEUdGCy6Mp75-1" target="bYfmTsaXpKSk-u-rqzPg-1" edge="1">
          <mxGeometry relative="1" as="geometry">
            <mxPoint x="645.5" y="730" as="sourcePoint" />
            <mxPoint x="-170" y="390" as="targetPoint" />
            <Array as="points">
              <mxPoint x="645.5" y="770" />
              <mxPoint x="320.5" y="770" />
            </Array>
          </mxGeometry>
        </mxCell>
        <mxCell id="bYfmTsaXpKSk-u-rqzPg-7" value="Có Hạch toán tài sản" style="rhombus;fillColor=#ffffc0;strokeColor=#ff0000;" parent="6vNpDCm_xEUdGCy6Mp75-1" vertex="1">
          <mxGeometry x="260" y="530" width="124.5" height="78" as="geometry" />
        </mxCell>
        <mxCell id="bYfmTsaXpKSk-u-rqzPg-8" value="Có" style="endArrow=open;strokeColor=#FF0000;endFill=1;rounded=0;exitX=0.5;exitY=1;exitDx=0;exitDy=0;" parent="6vNpDCm_xEUdGCy6Mp75-1" source="bYfmTsaXpKSk-u-rqzPg-7" edge="1">
          <mxGeometry relative="1" as="geometry">
            <mxPoint x="-114" y="367" as="sourcePoint" />
            <mxPoint x="323" y="680" as="targetPoint" />
            <Array as="points" />
          </mxGeometry>
        </mxCell>
        <mxCell id="bYfmTsaXpKSk-u-rqzPg-9" value="Không" style="endArrow=open;strokeColor=#FF0000;endFill=1;rounded=0;exitX=0;exitY=0.5;exitDx=0;exitDy=0;entryX=0;entryY=0.5;entryDx=0;entryDy=0;" parent="6vNpDCm_xEUdGCy6Mp75-1" source="bYfmTsaXpKSk-u-rqzPg-7" edge="1">
          <mxGeometry relative="1" as="geometry">
            <mxPoint x="-100.75" y="209" as="sourcePoint" />
            <mxPoint x="250" y="995" as="targetPoint" />
            <Array as="points">
              <mxPoint x="200" y="569" />
              <mxPoint x="200" y="995" />
            </Array>
          </mxGeometry>
        </mxCell>
        <mxCell id="bYfmTsaXpKSk-u-rqzPg-10" value="" style="endArrow=open;strokeColor=#FF0000;endFill=1;rounded=0;entryX=0.611;entryY=0;entryDx=0;entryDy=0;entryPerimeter=0;" parent="6vNpDCm_xEUdGCy6Mp75-1" edge="1">
          <mxGeometry relative="1" as="geometry">
            <mxPoint x="645.5" y="865" as="sourcePoint" />
            <mxPoint x="319.95949999999993" y="970" as="targetPoint" />
            <Array as="points">
              <mxPoint x="645.5" y="905" />
              <mxPoint x="320.5" y="905" />
            </Array>
          </mxGeometry>
        </mxCell>
        <mxCell id="f6gUeFh2hZIRCtmfjQEF-0" value="" style="endArrow=open;strokeColor=#FF0000;endFill=1;rounded=0;entryX=0.5;entryY=0;entryDx=0;entryDy=0;exitX=0.5;exitY=1;exitDx=0;exitDy=0;" parent="6vNpDCm_xEUdGCy6Mp75-1" edge="1">
          <mxGeometry relative="1" as="geometry">
            <mxPoint x="642.25" y="469" as="sourcePoint" />
            <mxPoint x="322.25" y="530" as="targetPoint" />
            <Array as="points">
              <mxPoint x="642" y="480" />
              <mxPoint x="322" y="480" />
            </Array>
          </mxGeometry>
        </mxCell>
        <mxCell id="6vNpDCm_xEUdGCy6Mp75-4" value="" style="edgeStyle=elbowEdgeStyle;elbow=horizontal;verticalAlign=bottom;endArrow=open;endSize=8;strokeColor=#FF0000;endFill=1;rounded=0" parent="6vNpDCm_xEUdGCy6Mp75-1" source="6vNpDCm_xEUdGCy6Mp75-3" target="6vNpDCm_xEUdGCy6Mp75-5" edge="1">
          <mxGeometry x="70" y="168" as="geometry">
            <mxPoint x="85" y="238" as="targetPoint" />
          </mxGeometry>
        </mxCell>
        <mxCell id="6vNpDCm_xEUdGCy6Mp75-5" value="(1) &#xa;Tạo công việc&#xa; Hạch toán" style="" parent="6vNpDCm_xEUdGCy6Mp75-1" vertex="1">
          <mxGeometry x="20" y="200" width="110" height="50" as="geometry" />
        </mxCell>
        <mxCell id="6vNpDCm_xEUdGCy6Mp75-9" value="(2) &#xa;Nhập template &#xa;Hạn mức thấu chi" style="" parent="6vNpDCm_xEUdGCy6Mp75-1" vertex="1">
          <mxGeometry x="21.129999999999995" y="270" width="110" height="50" as="geometry" />
        </mxCell>
        <mxCell id="6vNpDCm_xEUdGCy6Mp75-10" value="" style="endArrow=open;strokeColor=#FF0000;endFill=1;rounded=0;exitX=1;exitY=0.5;exitDx=0;exitDy=0;" parent="6vNpDCm_xEUdGCy6Mp75-1" source="6vNpDCm_xEUdGCy6Mp75-9" target="6vNpDCm_xEUdGCy6Mp75-6" edge="1">
          <mxGeometry relative="1" as="geometry">
            <mxPoint x="333.88" y="392" as="sourcePoint" />
            <mxPoint x="333.73368000000005" y="415.1" as="targetPoint" />
          </mxGeometry>
        </mxCell>
        <mxCell id="6vNpDCm_xEUdGCy6Mp75-25" value="" style="endArrow=open;strokeColor=#FF0000;endFill=1;rounded=0;exitX=0.5;exitY=1;exitDx=0;exitDy=0;" parent="6vNpDCm_xEUdGCy6Mp75-1" source="6vNpDCm_xEUdGCy6Mp75-5" edge="1">
          <mxGeometry relative="1" as="geometry">
            <mxPoint x="86.13" y="338" as="sourcePoint" />
            <mxPoint x="75" y="278" as="targetPoint" />
          </mxGeometry>
        </mxCell>
        <mxCell id="6vNpDCm_xEUdGCy6Mp75-3" value="" style="ellipse;shape=startState;fillColor=#000000;strokeColor=#ff0000;" parent="6vNpDCm_xEUdGCy6Mp75-1" vertex="1">
          <mxGeometry x="60" y="150" width="30" height="30" as="geometry" />
        </mxCell>
        <mxCell id="QZr8hXmXa62wwR46jrq5-0" value="Cán bộ nhập" style="swimlane;whiteSpace=wrap" vertex="1" parent="6vNpDCm_xEUdGCy6Mp75-1">
          <mxGeometry x="10" y="120" width="154.5" height="1120" as="geometry" />
        </mxCell>
      </root>
    </mxGraphModel>
  </diagram>
  <diagram name="Duyet-HM - Thấu chi" id="WuekU_cGvr_VtnJaf9VU">
    <mxGraphModel dx="1186" dy="690" grid="1" gridSize="10" guides="1" tooltips="1" connect="1" arrows="1" fold="1" page="1" pageScale="1" pageWidth="1169" pageHeight="826" background="#ffffff" math="0" shadow="0">
      <root>
        <mxCell id="uGFQctl5s4_F0DRaf_0N-0" />
        <mxCell id="uGFQctl5s4_F0DRaf_0N-1" parent="uGFQctl5s4_F0DRaf_0N-0" />
        <mxCell id="uGFQctl5s4_F0DRaf_0N-2" value="SeAOps" style="swimlane;whiteSpace=wrap" vertex="1" parent="uGFQctl5s4_F0DRaf_0N-1">
          <mxGeometry x="164.5" y="120" width="595.5" height="860" as="geometry" />
        </mxCell>
        <mxCell id="uGFQctl5s4_F0DRaf_0N-4" value="(2.1) &#xa;Duyệt&#xa;Limit Thấu chi" style="" vertex="1" parent="uGFQctl5s4_F0DRaf_0N-2">
          <mxGeometry x="96.63" y="190" width="113.37" height="50" as="geometry" />
        </mxCell>
        <mxCell id="uGFQctl5s4_F0DRaf_0N-7" value="T24" style="swimlane;whiteSpace=wrap" vertex="1" parent="uGFQctl5s4_F0DRaf_0N-2">
          <mxGeometry x="405.5" width="190" height="860" as="geometry" />
        </mxCell>
        <mxCell id="uGFQctl5s4_F0DRaf_0N-9" value="(2.2) &#xa;Duyệt&#xa;Limit Thấu chi" style="" vertex="1" parent="uGFQctl5s4_F0DRaf_0N-7">
          <mxGeometry x="23.06" y="190" width="114.5" height="50" as="geometry" />
        </mxCell>
        <mxCell id="uGFQctl5s4_F0DRaf_0N-20" value="(3.2) &#xa;Duyệt&#xa;Chi tiết Tài sản" style="" vertex="1" parent="uGFQctl5s4_F0DRaf_0N-7">
          <mxGeometry x="21.12000000000006" y="455" width="114.5" height="50" as="geometry" />
        </mxCell>
        <mxCell id="uGFQctl5s4_F0DRaf_0N-10" value="(4.2) &#xa;Duyệt Tài khoản&#xa;Thấu chi" style="" vertex="1" parent="uGFQctl5s4_F0DRaf_0N-7">
          <mxGeometry x="20" y="610" width="114.5" height="50" as="geometry" />
        </mxCell>
        <mxCell id="uGFQctl5s4_F0DRaf_0N-13" value="" style="endArrow=open;endFill=1;rounded=0;exitX=1;exitY=0.5;exitDx=0;exitDy=0;entryX=0;entryY=0.5;entryDx=0;entryDy=0;" edge="1" parent="uGFQctl5s4_F0DRaf_0N-2" source="uGFQctl5s4_F0DRaf_0N-4" target="uGFQctl5s4_F0DRaf_0N-9">
          <mxGeometry relative="1" as="geometry">
            <mxPoint x="214.3800000000001" y="146" as="sourcePoint" />
            <mxPoint x="420.5" y="146" as="targetPoint" />
          </mxGeometry>
        </mxCell>
        <mxCell id="uGFQctl5s4_F0DRaf_0N-5" value="(4.1) &#xa;Duyệt Tài khoản&#xa; Thấu chi" style="" vertex="1" parent="uGFQctl5s4_F0DRaf_0N-2">
          <mxGeometry x="72.44" y="610" width="114.5" height="50" as="geometry" />
        </mxCell>
        <mxCell id="uGFQctl5s4_F0DRaf_0N-6" value="" style="endArrow=open;endFill=1;rounded=0;exitX=1;exitY=0.5;exitDx=0;exitDy=0;entryX=0;entryY=0.5;entryDx=0;entryDy=0;" edge="1" parent="uGFQctl5s4_F0DRaf_0N-2" source="uGFQctl5s4_F0DRaf_0N-5" target="uGFQctl5s4_F0DRaf_0N-10">
          <mxGeometry relative="1" as="geometry">
            <mxPoint x="201.94" y="829" as="sourcePoint" />
            <mxPoint x="387.44" y="635" as="targetPoint" />
            <Array as="points" />
          </mxGeometry>
        </mxCell>
        <mxCell id="uGFQctl5s4_F0DRaf_0N-14" value="" style="ellipse;html=1;shape=endState;fillColor=#000000;strokeColor=#ff0000;fontColor=#FF3333;" vertex="1" parent="uGFQctl5s4_F0DRaf_0N-2">
          <mxGeometry x="252.44" y="690" width="30" height="30" as="geometry" />
        </mxCell>
        <mxCell id="uGFQctl5s4_F0DRaf_0N-15" value="" style="endArrow=open;endFill=1;rounded=0;exitX=0.5;exitY=1;exitDx=0;exitDy=0;" edge="1" parent="uGFQctl5s4_F0DRaf_0N-2" source="uGFQctl5s4_F0DRaf_0N-10" target="uGFQctl5s4_F0DRaf_0N-14">
          <mxGeometry relative="1" as="geometry">
            <mxPoint x="464.69" y="750" as="sourcePoint" />
            <mxPoint x="-338.4400000000001" y="505" as="targetPoint" />
            <Array as="points">
              <mxPoint x="482.5" y="705" />
            </Array>
          </mxGeometry>
        </mxCell>
        <mxCell id="uGFQctl5s4_F0DRaf_0N-17" value="(3.1) &#xa;Duyệt &#xa;Chi tiết tài sản" style="" vertex="1" parent="uGFQctl5s4_F0DRaf_0N-2">
          <mxGeometry x="72.44" y="450" width="140" height="60" as="geometry" />
        </mxCell>
        <mxCell id="uGFQctl5s4_F0DRaf_0N-18" value="" style="endArrow=open;endFill=1;rounded=0;exitX=1;exitY=0.5;exitDx=0;exitDy=0;entryX=0;entryY=0.5;entryDx=0;entryDy=0;" edge="1" parent="uGFQctl5s4_F0DRaf_0N-2" source="uGFQctl5s4_F0DRaf_0N-17" target="uGFQctl5s4_F0DRaf_0N-20">
          <mxGeometry relative="1" as="geometry">
            <mxPoint x="-341.68" y="42" as="sourcePoint" />
            <mxPoint x="-55.56" as="targetPoint" />
          </mxGeometry>
        </mxCell>
        <mxCell id="uGFQctl5s4_F0DRaf_0N-26" value="" style="endArrow=open;endFill=1;rounded=0;entryX=0.611;entryY=0;entryDx=0;entryDy=0;entryPerimeter=0;" edge="1" parent="uGFQctl5s4_F0DRaf_0N-2">
          <mxGeometry relative="1" as="geometry">
            <mxPoint x="467.94000000000005" y="505" as="sourcePoint" />
            <mxPoint x="142.39949999999993" y="610" as="targetPoint" />
            <Array as="points">
              <mxPoint x="467.94000000000005" y="545" />
              <mxPoint x="142.94" y="545" />
            </Array>
          </mxGeometry>
        </mxCell>
        <mxCell id="8Go01tD7hOtmaunhshOZ-9" style="edgeStyle=orthogonalEdgeStyle;rounded=0;orthogonalLoop=1;jettySize=auto;html=1;entryX=0;entryY=0.5;entryDx=0;entryDy=0;strokeColor=#000000;" edge="1" parent="uGFQctl5s4_F0DRaf_0N-2" source="8Go01tD7hOtmaunhshOZ-7" target="uGFQctl5s4_F0DRaf_0N-14">
          <mxGeometry relative="1" as="geometry" />
        </mxCell>
        <mxCell id="8Go01tD7hOtmaunhshOZ-7" value="(5.1) &#xa;Trả lại" style="" vertex="1" parent="uGFQctl5s4_F0DRaf_0N-2">
          <mxGeometry x="74.69" y="680" width="110" height="50" as="geometry" />
        </mxCell>
        <mxCell id="uGFQctl5s4_F0DRaf_0N-23" value="Có Hạch toán tài sản" style="rhombus;fillColor=#ffffc0;strokeColor=#ff0000;" vertex="1" parent="uGFQctl5s4_F0DRaf_0N-1">
          <mxGeometry x="250" y="421" width="124.5" height="78" as="geometry" />
        </mxCell>
        <mxCell id="uGFQctl5s4_F0DRaf_0N-24" value="Có" style="endArrow=open;endFill=1;rounded=0;exitX=0.5;exitY=1;exitDx=0;exitDy=0;" edge="1" parent="uGFQctl5s4_F0DRaf_0N-1" source="uGFQctl5s4_F0DRaf_0N-23">
          <mxGeometry relative="1" as="geometry">
            <mxPoint x="-124" y="258" as="sourcePoint" />
            <mxPoint x="313" y="571" as="targetPoint" />
            <Array as="points" />
          </mxGeometry>
        </mxCell>
        <mxCell id="uGFQctl5s4_F0DRaf_0N-25" value="Không" style="endArrow=open;endFill=1;rounded=0;exitX=0;exitY=0.5;exitDx=0;exitDy=0;entryX=0;entryY=0.5;entryDx=0;entryDy=0;" edge="1" parent="uGFQctl5s4_F0DRaf_0N-1" source="uGFQctl5s4_F0DRaf_0N-23" target="uGFQctl5s4_F0DRaf_0N-5">
          <mxGeometry relative="1" as="geometry">
            <mxPoint x="-110.75" y="100" as="sourcePoint" />
            <mxPoint x="240" y="886" as="targetPoint" />
            <Array as="points">
              <mxPoint x="190" y="460" />
              <mxPoint x="190" y="755" />
            </Array>
          </mxGeometry>
        </mxCell>
        <mxCell id="uGFQctl5s4_F0DRaf_0N-27" value="" style="endArrow=open;endFill=1;rounded=0;entryX=0.5;entryY=0;entryDx=0;entryDy=0;exitX=0.5;exitY=1;exitDx=0;exitDy=0;" edge="1" parent="uGFQctl5s4_F0DRaf_0N-1">
          <mxGeometry relative="1" as="geometry">
            <mxPoint x="632.25" y="360" as="sourcePoint" />
            <mxPoint x="312.25" y="421" as="targetPoint" />
            <Array as="points">
              <mxPoint x="632" y="371" />
              <mxPoint x="312" y="371" />
            </Array>
          </mxGeometry>
        </mxCell>
        <mxCell id="8Go01tD7hOtmaunhshOZ-0" value="Cán bộ Duyệt" style="swimlane;whiteSpace=wrap" vertex="1" parent="uGFQctl5s4_F0DRaf_0N-1">
          <mxGeometry x="10" y="120" width="154.5" height="860" as="geometry" />
        </mxCell>
        <mxCell id="8Go01tD7hOtmaunhshOZ-10" style="edgeStyle=orthogonalEdgeStyle;rounded=0;orthogonalLoop=1;jettySize=auto;html=1;entryX=0.5;entryY=0;entryDx=0;entryDy=0;strokeColor=#000000;" edge="1" parent="8Go01tD7hOtmaunhshOZ-0" source="8Go01tD7hOtmaunhshOZ-1" target="8Go01tD7hOtmaunhshOZ-5">
          <mxGeometry relative="1" as="geometry" />
        </mxCell>
        <mxCell id="8Go01tD7hOtmaunhshOZ-1" value="" style="ellipse;shape=startState;fillColor=#000000;strokeColor=#ff0000;" vertex="1" parent="8Go01tD7hOtmaunhshOZ-0">
          <mxGeometry x="62.75" y="20" width="30" height="30" as="geometry" />
        </mxCell>
        <mxCell id="8Go01tD7hOtmaunhshOZ-2" value="(2) &#xa;Duyệt Hạch toán" style="" vertex="1" parent="8Go01tD7hOtmaunhshOZ-0">
          <mxGeometry x="22.75" y="190" width="110" height="50" as="geometry" />
        </mxCell>
        <mxCell id="8Go01tD7hOtmaunhshOZ-3" value="(5) &#xa;Trả lại" style="" vertex="1" parent="8Go01tD7hOtmaunhshOZ-0">
          <mxGeometry x="10" y="680" width="110" height="50" as="geometry" />
        </mxCell>
        <mxCell id="8Go01tD7hOtmaunhshOZ-4" style="edgeStyle=orthogonalEdgeStyle;rounded=0;orthogonalLoop=1;jettySize=auto;html=1;entryX=0.5;entryY=0;entryDx=0;entryDy=0;" edge="1" parent="8Go01tD7hOtmaunhshOZ-0" source="8Go01tD7hOtmaunhshOZ-5" target="8Go01tD7hOtmaunhshOZ-2">
          <mxGeometry relative="1" as="geometry" />
        </mxCell>
        <mxCell id="8Go01tD7hOtmaunhshOZ-5" value="(1) &#xa;Danh sách &#xa;Công việc chờ duyệt" style="" vertex="1" parent="8Go01tD7hOtmaunhshOZ-0">
          <mxGeometry x="22.75" y="82" width="110" height="50" as="geometry" />
        </mxCell>
        <mxCell id="8Go01tD7hOtmaunhshOZ-6" style="edgeStyle=orthogonalEdgeStyle;rounded=0;orthogonalLoop=1;jettySize=auto;html=1;strokeColor=#000000;" edge="1" parent="uGFQctl5s4_F0DRaf_0N-1" source="8Go01tD7hOtmaunhshOZ-2" target="uGFQctl5s4_F0DRaf_0N-4">
          <mxGeometry relative="1" as="geometry" />
        </mxCell>
        <mxCell id="8Go01tD7hOtmaunhshOZ-8" style="edgeStyle=orthogonalEdgeStyle;rounded=0;orthogonalLoop=1;jettySize=auto;html=1;entryX=0;entryY=0.5;entryDx=0;entryDy=0;strokeColor=#000000;" edge="1" parent="uGFQctl5s4_F0DRaf_0N-1" source="8Go01tD7hOtmaunhshOZ-3" target="8Go01tD7hOtmaunhshOZ-7">
          <mxGeometry relative="1" as="geometry" />
        </mxCell>
      </root>
    </mxGraphModel>
  </diagram>
</mxfile>
