<mxfile host="app.diagrams.net" modified="2021-01-29T01:28:04.689Z" agent="5.0 (Windows NT 10.0; Win64; x64) AppleWebKit/537.36 (KHTML, like Gecko) Chrome/88.0.4324.104 Safari/537.36" etag="gIfAprba36j3pEFOBuoJ" version="14.2.7" type="gitlab">
  <diagram name="Page-1" id="e7e014a7-5840-1c2e-5031-d8a46d1fe8dd">
    <mxGraphModel dx="1102" dy="582" grid="1" gridSize="10" guides="1" tooltips="1" connect="1" arrows="1" fold="1" page="1" pageScale="1" pageWidth="1169" pageHeight="826" background="#ffffff" math="0" shadow="0">
      <root>
        <mxCell id="0" />
        <mxCell id="1" parent="0" />
        <mxCell id="2" value="SeAOps" style="swimlane;whiteSpace=wrap" parent="1" vertex="1">
          <mxGeometry x="164.5" y="128" width="280" height="602" as="geometry" />
        </mxCell>
        <mxCell id="5" value="" style="ellipse;shape=startState;fillColor=#000000;strokeColor=#ff0000;" parent="2" vertex="1">
          <mxGeometry x="145.5" y="22" width="30" height="30" as="geometry" />
        </mxCell>
        <mxCell id="6" value="" style="edgeStyle=elbowEdgeStyle;elbow=horizontal;verticalAlign=bottom;endArrow=open;endSize=8;strokeColor=#FF0000;endFill=1;rounded=0" parent="2" source="5" target="7" edge="1">
          <mxGeometry x="155.5" y="40" as="geometry">
            <mxPoint x="170.5" y="110" as="targetPoint" />
          </mxGeometry>
        </mxCell>
        <mxCell id="7" value="(1) &#xa;Tạo công việc&#xa; Hạch toán" style="" parent="2" vertex="1">
          <mxGeometry x="105.5" y="72" width="110" height="50" as="geometry" />
        </mxCell>
        <mxCell id="8" value="(4) &#xa;Nhập liệu giải ngân" style="" parent="2" vertex="1">
          <mxGeometry x="105.5" y="222" width="114.5" height="50" as="geometry" />
        </mxCell>
        <mxCell id="9" value="" style="endArrow=open;strokeColor=#FF0000;endFill=1;rounded=0;entryX=0.5;entryY=0;entryDx=0;entryDy=0;" parent="2" source="7" target="npU-yQshT49j2Z7XsWyp-52" edge="1">
          <mxGeometry relative="1" as="geometry" />
        </mxCell>
        <mxCell id="10" value="(5)&#xa;Chuyển phê duyệt" style="" parent="2" vertex="1">
          <mxGeometry x="107.75" y="412" width="110" height="50" as="geometry" />
        </mxCell>
        <mxCell id="npU-yQshT49j2Z7XsWyp-44" value="Phê duyệt / Trả lại" style="rhombus;fillColor=#ffffc0;strokeColor=#ff0000;" vertex="1" parent="2">
          <mxGeometry x="100.5" y="492" width="124.5" height="78" as="geometry" />
        </mxCell>
        <mxCell id="20" value="" style="endArrow=open;strokeColor=#FF0000;endFill=1;rounded=0" parent="2" source="10" target="npU-yQshT49j2Z7XsWyp-44" edge="1">
          <mxGeometry relative="1" as="geometry">
            <mxPoint x="155.5" y="420" as="targetPoint" />
          </mxGeometry>
        </mxCell>
        <mxCell id="npU-yQshT49j2Z7XsWyp-45" value="Trả lại" style="edgeStyle=elbowEdgeStyle;elbow=horizontal;entryX=0;entryY=0.5;strokeColor=#FF0000;endArrow=open;endFill=1;rounded=0;exitX=0;exitY=0.5;exitDx=0;exitDy=0;entryDx=0;entryDy=0;" edge="1" parent="2" source="npU-yQshT49j2Z7XsWyp-44" target="8">
          <mxGeometry width="100" height="100" relative="1" as="geometry">
            <mxPoint x="485" y="455" as="sourcePoint" />
            <mxPoint x="535" y="497.5" as="targetPoint" />
            <Array as="points">
              <mxPoint x="46" y="342" />
            </Array>
          </mxGeometry>
        </mxCell>
        <mxCell id="npU-yQshT49j2Z7XsWyp-52" value="(2) &#xa;Nhập mã LOS" style="" vertex="1" parent="2">
          <mxGeometry x="105.5" y="152" width="110" height="50" as="geometry" />
        </mxCell>
        <mxCell id="npU-yQshT49j2Z7XsWyp-59" value="" style="endArrow=open;strokeColor=#FF0000;endFill=1;rounded=0;" edge="1" parent="2" source="npU-yQshT49j2Z7XsWyp-56">
          <mxGeometry relative="1" as="geometry">
            <mxPoint x="160" y="372" as="sourcePoint" />
            <mxPoint x="160.5" y="412" as="targetPoint" />
          </mxGeometry>
        </mxCell>
        <mxCell id="3" value="T24" style="swimlane;whiteSpace=wrap" parent="1" vertex="1">
          <mxGeometry x="444.5" y="128" width="280" height="602" as="geometry" />
        </mxCell>
        <mxCell id="npU-yQshT49j2Z7XsWyp-46" value="(6) &#xa;Commit các bản ghi InAuth" style="" vertex="1" parent="3">
          <mxGeometry x="105.5" y="412" width="144.5" height="50" as="geometry" />
        </mxCell>
        <mxCell id="npU-yQshT49j2Z7XsWyp-47" value="(7)&#xa;Duyệt các bản ghi" style="" vertex="1" parent="3">
          <mxGeometry x="105.5" y="506" width="144.5" height="50" as="geometry" />
        </mxCell>
        <mxCell id="npU-yQshT49j2Z7XsWyp-56" value="(5)&#xa;Lưu" style="" vertex="1" parent="3">
          <mxGeometry x="-172.25" y="322" width="110" height="50" as="geometry" />
        </mxCell>
        <mxCell id="npU-yQshT49j2Z7XsWyp-57" value="(6) &#xa;Tạo các bản ghi InHold" style="" vertex="1" parent="3">
          <mxGeometry x="105.5" y="322" width="144.5" height="50" as="geometry" />
        </mxCell>
        <mxCell id="npU-yQshT49j2Z7XsWyp-58" value="Lưu" style="edgeStyle=elbowEdgeStyle;elbow=horizontal;entryX=0;entryY=0.5;strokeColor=#FF0000;endArrow=open;endFill=1;rounded=0;exitX=1;exitY=0.5;exitDx=0;exitDy=0;entryDx=0;entryDy=0;" edge="1" parent="3" source="npU-yQshT49j2Z7XsWyp-56" target="npU-yQshT49j2Z7XsWyp-57">
          <mxGeometry width="100" height="100" relative="1" as="geometry">
            <mxPoint x="-171.75" y="381" as="sourcePoint" />
            <mxPoint x="-164.5" y="167" as="targetPoint" />
            <Array as="points">
              <mxPoint x="25.5" y="322" />
            </Array>
          </mxGeometry>
        </mxCell>
        <mxCell id="4" value="LOS" style="swimlane;whiteSpace=wrap" parent="1" vertex="1">
          <mxGeometry x="724.5" y="128" width="215.5" height="602" as="geometry" />
        </mxCell>
        <mxCell id="npU-yQshT49j2Z7XsWyp-54" value="(3) &#xa;Lấy thông tin LOS" style="" vertex="1" parent="4">
          <mxGeometry x="85" y="152" width="110" height="50" as="geometry" />
        </mxCell>
        <mxCell id="npU-yQshT49j2Z7XsWyp-42" value="Cán bộ nhập" style="rounded=0;whiteSpace=wrap;html=1;direction=east;textDirection=rtl;horizontal=0;" vertex="1" parent="1">
          <mxGeometry x="119.5" y="130" width="45" height="390" as="geometry" />
        </mxCell>
        <mxCell id="npU-yQshT49j2Z7XsWyp-43" value="Cán bộ Duyệt" style="rounded=0;whiteSpace=wrap;html=1;direction=east;textDirection=rtl;horizontal=0;" vertex="1" parent="1">
          <mxGeometry x="119.5" y="520" width="45" height="210" as="geometry" />
        </mxCell>
        <mxCell id="npU-yQshT49j2Z7XsWyp-48" value="Chuyển duyệt" style="edgeStyle=elbowEdgeStyle;elbow=horizontal;entryX=0;entryY=0.5;strokeColor=#FF0000;endArrow=open;endFill=1;rounded=0;exitX=1;exitY=0.5;exitDx=0;exitDy=0;entryDx=0;entryDy=0;" edge="1" parent="1" source="10" target="npU-yQshT49j2Z7XsWyp-46">
          <mxGeometry width="100" height="100" relative="1" as="geometry">
            <mxPoint x="272.75" y="599" as="sourcePoint" />
            <mxPoint x="280" y="385" as="targetPoint" />
            <Array as="points">
              <mxPoint x="470" y="540" />
            </Array>
          </mxGeometry>
        </mxCell>
        <mxCell id="npU-yQshT49j2Z7XsWyp-53" value="" style="edgeStyle=elbowEdgeStyle;elbow=horizontal;strokeColor=#FF0000;endArrow=open;endFill=1;rounded=0;exitX=1;exitY=0.5;exitDx=0;exitDy=0;entryX=0;entryY=0.5;entryDx=0;entryDy=0;" edge="1" parent="1" source="npU-yQshT49j2Z7XsWyp-52" target="npU-yQshT49j2Z7XsWyp-54">
          <mxGeometry width="100" height="100" relative="1" as="geometry">
            <mxPoint x="272.75" y="559" as="sourcePoint" />
            <mxPoint x="800" y="290" as="targetPoint" />
            <Array as="points">
              <mxPoint x="510" y="300" />
            </Array>
          </mxGeometry>
        </mxCell>
        <mxCell id="npU-yQshT49j2Z7XsWyp-55" value="" style="edgeStyle=elbowEdgeStyle;elbow=horizontal;entryX=1;entryY=0.5;strokeColor=#FF0000;endArrow=open;endFill=1;rounded=0;exitX=0.5;exitY=1;exitDx=0;exitDy=0;entryDx=0;entryDy=0;" edge="1" parent="1" source="npU-yQshT49j2Z7XsWyp-54" target="8">
          <mxGeometry width="100" height="100" relative="1" as="geometry">
            <mxPoint x="272.75" y="559" as="sourcePoint" />
            <mxPoint x="280" y="385" as="targetPoint" />
            <Array as="points">
              <mxPoint x="860" y="360" />
            </Array>
          </mxGeometry>
        </mxCell>
        <mxCell id="npU-yQshT49j2Z7XsWyp-49" value="Duyệt" style="endArrow=open;strokeColor=#FF0000;endFill=1;rounded=0;exitX=1;exitY=0.5;exitDx=0;exitDy=0;entryX=0;entryY=0.5;entryDx=0;entryDy=0;" edge="1" parent="1" source="npU-yQshT49j2Z7XsWyp-44" target="npU-yQshT49j2Z7XsWyp-47">
          <mxGeometry relative="1" as="geometry">
            <mxPoint x="335" y="480" as="sourcePoint" />
            <mxPoint x="335" y="520" as="targetPoint" />
          </mxGeometry>
        </mxCell>
        <mxCell id="11" value="" style="endArrow=open;strokeColor=#FF0000;endFill=1;rounded=0;entryX=0.5;entryY=0;entryDx=0;entryDy=0;" parent="1" source="8" target="npU-yQshT49j2Z7XsWyp-56" edge="1">
          <mxGeometry relative="1" as="geometry" />
        </mxCell>
        <mxCell id="npU-yQshT49j2Z7XsWyp-61" value="" style="shape=link;html=1;exitX=0;exitY=0;exitDx=0;exitDy=0;" edge="1" parent="1" source="npU-yQshT49j2Z7XsWyp-43">
          <mxGeometry width="100" relative="1" as="geometry">
            <mxPoint x="170" y="520" as="sourcePoint" />
            <mxPoint x="940" y="520" as="targetPoint" />
          </mxGeometry>
        </mxCell>
      </root>
    </mxGraphModel>
  </diagram>
</mxfile>
